PWD /home/alexcekay/Schreibtisch/Bachelor/ausarbeitung
INPUT /usr/share/texmf-dist/web2c/texmf.cnf
INPUT /home/alexcekay/.texlive/texmf-var/web2c/pdftex/pdflatex.fmt
INPUT ausarbeitung.tex
OUTPUT ausarbeitung.log
INPUT /usr/share/texmf-dist/tex/latex/koma-script/scrreprt.cls
INPUT /usr/share/texmf-dist/tex/latex/koma-script/scrreprt.cls
INPUT /usr/share/texmf-dist/tex/latex/koma-script/scrkbase.sty
INPUT /usr/share/texmf-dist/tex/latex/koma-script/scrkbase.sty
INPUT /usr/share/texmf-dist/tex/latex/koma-script/scrbase.sty
INPUT /usr/share/texmf-dist/tex/latex/koma-script/scrbase.sty
INPUT /usr/share/texmf-dist/tex/latex/graphics/keyval.sty
INPUT /usr/share/texmf-dist/tex/latex/graphics/keyval.sty
INPUT /usr/share/texmf-dist/tex/latex/koma-script/scrlfile.sty
INPUT /usr/share/texmf-dist/tex/latex/koma-script/scrlfile.sty
INPUT /usr/share/texmf-dist/tex/latex/koma-script/tocbasic.sty
INPUT /usr/share/texmf-dist/tex/latex/koma-script/tocbasic.sty
INPUT /usr/share/texmf-dist/tex/latex/koma-script/scrsize12pt.clo
INPUT /usr/share/texmf-dist/tex/latex/koma-script/scrsize12pt.clo
INPUT /usr/share/texmf-dist/fonts/map/fontname/texfonts.map
INPUT /usr/share/texmf-dist/fonts/tfm/public/cm/cmr12.tfm
INPUT /usr/share/texmf-dist/tex/latex/koma-script/typearea.sty
INPUT /usr/share/texmf-dist/tex/latex/koma-script/typearea.sty
INPUT /usr/share/texmf-dist/tex/latex/base/inputenc.sty
INPUT /usr/share/texmf-dist/tex/latex/base/inputenc.sty
INPUT /usr/share/texmf-dist/tex/latex/base/utf8.def
INPUT /usr/share/texmf-dist/tex/latex/base/utf8.def
INPUT /usr/share/texmf-dist/tex/latex/base/t1enc.dfu
INPUT /usr/share/texmf-dist/tex/latex/base/t1enc.dfu
INPUT /usr/share/texmf-dist/tex/latex/base/ot1enc.dfu
INPUT /usr/share/texmf-dist/tex/latex/base/ot1enc.dfu
INPUT /usr/share/texmf-dist/tex/latex/base/omsenc.dfu
INPUT /usr/share/texmf-dist/tex/latex/base/omsenc.dfu
INPUT /usr/share/texmf-dist/tex/latex/base/fontenc.sty
INPUT /usr/share/texmf-dist/tex/latex/base/fontenc.sty
INPUT /usr/share/texmf-dist/tex/latex/base/t1enc.def
INPUT /usr/share/texmf-dist/tex/latex/base/t1enc.def
INPUT /usr/share/texmf-dist/fonts/tfm/jknappen/ec/ecrm1200.tfm
INPUT /usr/share/texmf-dist/tex/generic/babel/babel.sty
INPUT /usr/share/texmf-dist/tex/generic/babel/babel.sty
INPUT /usr/share/texmf-dist/tex/generic/babel-german/ngerman.ldf
INPUT /usr/share/texmf-dist/tex/generic/babel-german/ngerman.ldf
INPUT /usr/share/texmf-dist/tex/generic/babel-german/ngermanb.ldf
INPUT /usr/share/texmf-dist/tex/generic/babel/babel.def
INPUT /usr/share/texmf-dist/tex/latex/parskip/parskip.sty
INPUT /usr/share/texmf-dist/tex/latex/parskip/parskip.sty
INPUT /usr/share/texmf-dist/tex/latex/biblatex/biblatex.sty
INPUT /usr/share/texmf-dist/tex/latex/biblatex/biblatex.sty
INPUT /usr/share/texmf-dist/tex/generic/oberdiek/pdftexcmds.sty
INPUT /usr/share/texmf-dist/tex/generic/oberdiek/pdftexcmds.sty
INPUT /usr/share/texmf-dist/tex/generic/oberdiek/infwarerr.sty
INPUT /usr/share/texmf-dist/tex/generic/oberdiek/infwarerr.sty
INPUT /usr/share/texmf-dist/tex/generic/oberdiek/ifluatex.sty
INPUT /usr/share/texmf-dist/tex/generic/oberdiek/ifluatex.sty
INPUT /usr/share/texmf-dist/tex/generic/oberdiek/ltxcmds.sty
INPUT /usr/share/texmf-dist/tex/generic/oberdiek/ltxcmds.sty
INPUT /usr/share/texmf-dist/tex/generic/oberdiek/ifpdf.sty
INPUT /usr/share/texmf-dist/tex/generic/oberdiek/ifpdf.sty
INPUT /usr/share/texmf-dist/tex/latex/etoolbox/etoolbox.sty
INPUT /usr/share/texmf-dist/tex/latex/etoolbox/etoolbox.sty
INPUT /usr/share/texmf-dist/tex/latex/oberdiek/kvoptions.sty
INPUT /usr/share/texmf-dist/tex/latex/oberdiek/kvoptions.sty
INPUT /usr/share/texmf-dist/tex/generic/oberdiek/kvsetkeys.sty
INPUT /usr/share/texmf-dist/tex/generic/oberdiek/kvsetkeys.sty
INPUT /usr/share/texmf-dist/tex/generic/oberdiek/etexcmds.sty
INPUT /usr/share/texmf-dist/tex/generic/oberdiek/etexcmds.sty
INPUT /usr/share/texmf-dist/tex/latex/logreq/logreq.sty
INPUT /usr/share/texmf-dist/tex/latex/logreq/logreq.sty
INPUT /usr/share/texmf-dist/tex/latex/logreq/logreq.def
INPUT /usr/share/texmf-dist/tex/latex/logreq/logreq.def
INPUT /usr/share/texmf-dist/tex/latex/base/ifthen.sty
INPUT /usr/share/texmf-dist/tex/latex/base/ifthen.sty
INPUT /usr/share/texmf-dist/tex/latex/url/url.sty
INPUT /usr/share/texmf-dist/tex/latex/url/url.sty
INPUT /usr/share/texmf-dist/tex/generic/xstring/xstring.sty
INPUT /usr/share/texmf-dist/tex/generic/xstring/xstring.sty
INPUT /usr/share/texmf-dist/tex/generic/xstring/xstring.tex
INPUT /usr/share/texmf-dist/tex/latex/biblatex/blx-dm.def
INPUT /usr/share/texmf-dist/tex/latex/biblatex/blx-dm.def
INPUT /usr/share/texmf-dist/tex/latex/biblatex/blx-compat.def
INPUT /usr/share/texmf-dist/tex/latex/biblatex/blx-compat.def
INPUT /usr/share/texmf-dist/tex/latex/biblatex/blx-bibtex.def
INPUT /usr/share/texmf-dist/tex/latex/biblatex/blx-bibtex.def
INPUT /usr/share/texmf-dist/tex/latex/biblatex/biblatex.def
INPUT /usr/share/texmf-dist/tex/latex/biblatex/biblatex.def
INPUT /usr/share/texmf-dist/tex/latex/biblatex/bbx/numeric.bbx
INPUT /usr/share/texmf-dist/tex/latex/biblatex/bbx/numeric.bbx
INPUT /usr/share/texmf-dist/tex/latex/biblatex/bbx/standard.bbx
INPUT /usr/share/texmf-dist/tex/latex/biblatex/bbx/standard.bbx
INPUT /usr/share/texmf-dist/tex/latex/biblatex-ieee/ieee.cbx
INPUT /usr/share/texmf-dist/tex/latex/biblatex-ieee/ieee.cbx
INPUT /usr/share/texmf-dist/tex/latex/biblatex/cbx/numeric-comp.cbx
INPUT /usr/share/texmf-dist/tex/latex/biblatex/cbx/numeric-comp.cbx
INPUT /usr/share/texmf-dist/tex/latex/biblatex/biblatex.cfg
INPUT /usr/share/texmf-dist/tex/latex/biblatex/biblatex.cfg
INPUT /usr/share/texmf-dist/tex/latex/csquotes/csquotes.sty
INPUT /usr/share/texmf-dist/tex/latex/csquotes/csquotes.sty
INPUT /usr/share/texmf-dist/tex/latex/csquotes/csquotes.def
INPUT /usr/share/texmf-dist/tex/latex/csquotes/csquotes.def
INPUT /usr/share/texmf-dist/tex/latex/csquotes/csquotes.cfg
INPUT /usr/share/texmf-dist/tex/latex/csquotes/csquotes.cfg
INPUT /usr/share/texmf-dist/tex/latex/hyperref/hyperref.sty
INPUT /usr/share/texmf-dist/tex/latex/hyperref/hyperref.sty
INPUT /usr/share/texmf-dist/tex/generic/oberdiek/hobsub-hyperref.sty
INPUT /usr/share/texmf-dist/tex/generic/oberdiek/hobsub-hyperref.sty
INPUT /usr/share/texmf-dist/tex/generic/oberdiek/hobsub-hyperref.sty
INPUT /usr/share/texmf-dist/tex/generic/oberdiek/hobsub-generic.sty
INPUT /usr/share/texmf-dist/tex/generic/oberdiek/hobsub-generic.sty
INPUT /usr/share/texmf-dist/tex/generic/ifxetex/ifxetex.sty
INPUT /usr/share/texmf-dist/tex/generic/ifxetex/ifxetex.sty
INPUT /usr/share/texmf-dist/tex/latex/oberdiek/auxhook.sty
INPUT /usr/share/texmf-dist/tex/latex/oberdiek/auxhook.sty
INPUT /usr/share/texmf-dist/tex/latex/hyperref/pd1enc.def
INPUT /usr/share/texmf-dist/tex/latex/hyperref/pd1enc.def
INPUT /usr/share/texmf-dist/tex/latex/latexconfig/hyperref.cfg
INPUT /usr/share/texmf-dist/tex/latex/latexconfig/hyperref.cfg
INPUT /usr/share/texmf-dist/tex/latex/hyperref/hpdftex.def
INPUT /usr/share/texmf-dist/tex/latex/hyperref/hpdftex.def
INPUT /usr/share/texmf-dist/tex/latex/oberdiek/rerunfilecheck.sty
INPUT /usr/share/texmf-dist/tex/latex/oberdiek/rerunfilecheck.sty
INPUT /usr/share/texmf-dist/tex/latex/graphics/graphicx.sty
INPUT /usr/share/texmf-dist/tex/latex/graphics/graphicx.sty
INPUT /usr/share/texmf-dist/tex/latex/graphics/graphics.sty
INPUT /usr/share/texmf-dist/tex/latex/graphics/graphics.sty
INPUT /usr/share/texmf-dist/tex/latex/graphics/trig.sty
INPUT /usr/share/texmf-dist/tex/latex/graphics/trig.sty
INPUT /usr/share/texmf-dist/tex/latex/graphics-cfg/graphics.cfg
INPUT /usr/share/texmf-dist/tex/latex/graphics-cfg/graphics.cfg
INPUT /usr/share/texmf-dist/tex/latex/graphics-def/pdftex.def
INPUT /usr/share/texmf-dist/tex/latex/graphics-def/pdftex.def
INPUT /usr/share/texmf-dist/tex/latex/chngcntr/chngcntr.sty
INPUT /usr/share/texmf-dist/tex/latex/chngcntr/chngcntr.sty
INPUT /usr/share/texmf-dist/tex/latex/mathtools/mathtools.sty
INPUT /usr/share/texmf-dist/tex/latex/mathtools/mathtools.sty
INPUT /usr/share/texmf-dist/tex/latex/tools/calc.sty
INPUT /usr/share/texmf-dist/tex/latex/tools/calc.sty
INPUT /usr/share/texmf-dist/tex/latex/mathtools/mhsetup.sty
INPUT /usr/share/texmf-dist/tex/latex/mathtools/mhsetup.sty
INPUT /usr/share/texmf-dist/tex/latex/amsmath/amsmath.sty
INPUT /usr/share/texmf-dist/tex/latex/amsmath/amsmath.sty
INPUT /usr/share/texmf-dist/tex/latex/amsmath/amstext.sty
INPUT /usr/share/texmf-dist/tex/latex/amsmath/amstext.sty
INPUT /usr/share/texmf-dist/tex/latex/amsmath/amsgen.sty
INPUT /usr/share/texmf-dist/tex/latex/amsmath/amsgen.sty
INPUT /usr/share/texmf-dist/tex/latex/amsmath/amsbsy.sty
INPUT /usr/share/texmf-dist/tex/latex/amsmath/amsbsy.sty
INPUT /usr/share/texmf-dist/tex/latex/amsmath/amsopn.sty
INPUT /usr/share/texmf-dist/tex/latex/amsmath/amsopn.sty
INPUT /usr/share/texmf-dist/tex/latex/subfig/subfig.sty
INPUT /usr/share/texmf-dist/tex/latex/subfig/subfig.sty
INPUT /usr/share/texmf-dist/tex/latex/caption/caption.sty
INPUT /usr/share/texmf-dist/tex/latex/caption/caption.sty
INPUT /usr/share/texmf-dist/tex/latex/caption/caption3.sty
INPUT /usr/share/texmf-dist/tex/latex/caption/caption3.sty
INPUT /usr/share/texmf-dist/tex/latex/amsfonts/amssymb.sty
INPUT /usr/share/texmf-dist/tex/latex/amsfonts/amssymb.sty
INPUT /usr/share/texmf-dist/tex/latex/amsfonts/amsfonts.sty
INPUT /usr/share/texmf-dist/tex/latex/amsfonts/amsfonts.sty
INPUT /usr/share/texmf-dist/tex/latex/was/gensymb.sty
INPUT /usr/share/texmf-dist/tex/latex/was/gensymb.sty
INPUT /usr/share/texmf-dist/tex/latex/algorithm2e/algorithm2e.sty
INPUT /usr/share/texmf-dist/tex/latex/algorithm2e/algorithm2e.sty
INPUT /usr/share/texmf-dist/tex/latex/tools/xspace.sty
INPUT /usr/share/texmf-dist/tex/latex/tools/xspace.sty
INPUT /usr/share/texmf-dist/tex/latex/relsize/relsize.sty
INPUT /usr/share/texmf-dist/tex/latex/relsize/relsize.sty
INPUT /usr/share/texmf-dist/tex/latex/graphics/color.sty
INPUT /usr/share/texmf-dist/tex/latex/graphics/color.sty
INPUT /usr/share/texmf-dist/tex/latex/graphics-cfg/color.cfg
INPUT /usr/share/texmf-dist/tex/latex/graphics-cfg/color.cfg
INPUT /usr/share/texmf-dist/tex/latex/amscls/amsthm.sty
INPUT /usr/share/texmf-dist/tex/latex/amscls/amsthm.sty
INPUT /usr/share/texmf-dist/tex/latex/booktabs/booktabs.sty
INPUT /usr/share/texmf-dist/tex/latex/booktabs/booktabs.sty
INPUT /usr/share/texmf-dist/tex/latex/pgfplots/pgfplots.sty
INPUT /usr/share/texmf-dist/tex/latex/pgfplots/pgfplots.sty
INPUT /usr/share/texmf-dist/tex/generic/pgfplots/pgfplots.revision.tex
INPUT /usr/share/texmf-dist/tex/generic/pgfplots/pgfplots.revision.tex
INPUT /usr/share/texmf-dist/tex/generic/pgf/systemlayer/pgfsys-luatex.def
INPUT /usr/share/texmf-dist/tex/latex/pgf/frontendlayer/tikz.sty
INPUT /usr/share/texmf-dist/tex/latex/pgf/frontendlayer/tikz.sty
INPUT /usr/share/texmf-dist/tex/latex/pgf/basiclayer/pgf.sty
INPUT /usr/share/texmf-dist/tex/latex/pgf/basiclayer/pgf.sty
INPUT /usr/share/texmf-dist/tex/latex/pgf/utilities/pgfrcs.sty
INPUT /usr/share/texmf-dist/tex/latex/pgf/utilities/pgfrcs.sty
INPUT /usr/share/texmf-dist/tex/generic/pgf/utilities/pgfutil-common.tex
INPUT /usr/share/texmf-dist/tex/generic/pgf/utilities/pgfutil-common-lists.tex
INPUT /usr/share/texmf-dist/tex/generic/pgf/utilities/pgfutil-latex.def
INPUT /usr/share/texmf-dist/tex/latex/ms/everyshi.sty
INPUT /usr/share/texmf-dist/tex/latex/ms/everyshi.sty
INPUT /usr/share/texmf-dist/tex/generic/pgf/utilities/pgfrcs.code.tex
INPUT /usr/share/texmf-dist/tex/generic/pgf/utilities/pgfrcs.code.tex
INPUT /usr/share/texmf-dist/tex/latex/pgf/basiclayer/pgfcore.sty
INPUT /usr/share/texmf-dist/tex/latex/pgf/basiclayer/pgfcore.sty
INPUT /usr/share/texmf-dist/tex/latex/pgf/systemlayer/pgfsys.sty
INPUT /usr/share/texmf-dist/tex/latex/pgf/systemlayer/pgfsys.sty
INPUT /usr/share/texmf-dist/tex/generic/pgf/systemlayer/pgfsys.code.tex
INPUT /usr/share/texmf-dist/tex/generic/pgf/systemlayer/pgfsys.code.tex
INPUT /usr/share/texmf-dist/tex/generic/pgf/utilities/pgfkeys.code.tex
INPUT /usr/share/texmf-dist/tex/generic/pgf/utilities/pgfkeysfiltered.code.tex
INPUT /usr/share/texmf-dist/tex/generic/pgf/systemlayer/pgf.cfg
INPUT /usr/share/texmf-dist/tex/generic/pgf/systemlayer/pgfsys-pdftex.def
INPUT /usr/share/texmf-dist/tex/generic/pgf/systemlayer/pgfsys-pdftex.def
INPUT /usr/share/texmf-dist/tex/generic/pgf/systemlayer/pgfsys-common-pdf.def
INPUT /usr/share/texmf-dist/tex/generic/pgf/systemlayer/pgfsyssoftpath.code.tex
INPUT /usr/share/texmf-dist/tex/generic/pgf/systemlayer/pgfsyssoftpath.code.tex
INPUT /usr/share/texmf-dist/tex/generic/pgf/systemlayer/pgfsysprotocol.code.tex
INPUT /usr/share/texmf-dist/tex/generic/pgf/systemlayer/pgfsysprotocol.code.tex
INPUT /usr/share/texmf-dist/tex/latex/xcolor/xcolor.sty
INPUT /usr/share/texmf-dist/tex/latex/xcolor/xcolor.sty
INPUT /usr/share/texmf-dist/tex/latex/graphics-cfg/color.cfg
INPUT /usr/share/texmf-dist/tex/latex/graphics-cfg/color.cfg
INPUT /usr/share/texmf-dist/tex/generic/pgf/basiclayer/pgfcore.code.tex
INPUT /usr/share/texmf-dist/tex/generic/pgf/basiclayer/pgfcore.code.tex
INPUT /usr/share/texmf-dist/tex/generic/pgf/math/pgfmath.code.tex
INPUT /usr/share/texmf-dist/tex/generic/pgf/math/pgfmathcalc.code.tex
INPUT /usr/share/texmf-dist/tex/generic/pgf/math/pgfmathutil.code.tex
INPUT /usr/share/texmf-dist/tex/generic/pgf/math/pgfmathparser.code.tex
INPUT /usr/share/texmf-dist/tex/generic/pgf/math/pgfmathfunctions.code.tex
INPUT /usr/share/texmf-dist/tex/generic/pgf/math/pgfmathfunctions.basic.code.tex
INPUT /usr/share/texmf-dist/tex/generic/pgf/math/pgfmathfunctions.trigonometric.code.tex
INPUT /usr/share/texmf-dist/tex/generic/pgf/math/pgfmathfunctions.random.code.tex
INPUT /usr/share/texmf-dist/tex/generic/pgf/math/pgfmathfunctions.comparison.code.tex
INPUT /usr/share/texmf-dist/tex/generic/pgf/math/pgfmathfunctions.base.code.tex
INPUT /usr/share/texmf-dist/tex/generic/pgf/math/pgfmathfunctions.round.code.tex
INPUT /usr/share/texmf-dist/tex/generic/pgf/math/pgfmathfunctions.misc.code.tex
INPUT /usr/share/texmf-dist/tex/generic/pgf/math/pgfmathfunctions.integerarithmetics.code.tex
INPUT /usr/share/texmf-dist/tex/generic/pgf/math/pgfmathfloat.code.tex
INPUT /usr/share/texmf-dist/tex/generic/pgf/basiclayer/pgfcorepoints.code.tex
INPUT /usr/share/texmf-dist/tex/generic/pgf/basiclayer/pgfcorepathconstruct.code.tex
INPUT /usr/share/texmf-dist/tex/generic/pgf/basiclayer/pgfcorepathusage.code.tex
INPUT /usr/share/texmf-dist/tex/generic/pgf/basiclayer/pgfcorescopes.code.tex
INPUT /usr/share/texmf-dist/tex/generic/pgf/basiclayer/pgfcoregraphicstate.code.tex
INPUT /usr/share/texmf-dist/tex/generic/pgf/basiclayer/pgfcoretransformations.code.tex
INPUT /usr/share/texmf-dist/tex/generic/pgf/basiclayer/pgfcorequick.code.tex
INPUT /usr/share/texmf-dist/tex/generic/pgf/basiclayer/pgfcoreobjects.code.tex
INPUT /usr/share/texmf-dist/tex/generic/pgf/basiclayer/pgfcorepathprocessing.code.tex
INPUT /usr/share/texmf-dist/tex/generic/pgf/basiclayer/pgfcorearrows.code.tex
INPUT /usr/share/texmf-dist/tex/generic/pgf/basiclayer/pgfcoreshade.code.tex
INPUT /usr/share/texmf-dist/tex/generic/pgf/basiclayer/pgfcoreimage.code.tex
INPUT /usr/share/texmf-dist/tex/generic/pgf/basiclayer/pgfcoreexternal.code.tex
INPUT /usr/share/texmf-dist/tex/generic/pgf/basiclayer/pgfcorelayers.code.tex
INPUT /usr/share/texmf-dist/tex/generic/pgf/basiclayer/pgfcoretransparency.code.tex
INPUT /usr/share/texmf-dist/tex/generic/pgf/basiclayer/pgfcorepatterns.code.tex
INPUT /usr/share/texmf-dist/tex/generic/pgf/modules/pgfmoduleshapes.code.tex
INPUT /usr/share/texmf-dist/tex/generic/pgf/modules/pgfmoduleplot.code.tex
INPUT /usr/share/texmf-dist/tex/latex/pgf/compatibility/pgfcomp-version-0-65.sty
INPUT /usr/share/texmf-dist/tex/latex/pgf/compatibility/pgfcomp-version-0-65.sty
INPUT /usr/share/texmf-dist/tex/latex/pgf/compatibility/pgfcomp-version-1-18.sty
INPUT /usr/share/texmf-dist/tex/latex/pgf/compatibility/pgfcomp-version-1-18.sty
INPUT /usr/share/texmf-dist/tex/latex/pgf/utilities/pgffor.sty
INPUT /usr/share/texmf-dist/tex/latex/pgf/utilities/pgffor.sty
INPUT /usr/share/texmf-dist/tex/latex/pgf/utilities/pgfkeys.sty
INPUT /usr/share/texmf-dist/tex/latex/pgf/utilities/pgfkeys.sty
INPUT /usr/share/texmf-dist/tex/generic/pgf/utilities/pgfkeys.code.tex
INPUT /usr/share/texmf-dist/tex/generic/pgf/utilities/pgfkeys.code.tex
INPUT /usr/share/texmf-dist/tex/latex/pgf/math/pgfmath.sty
INPUT /usr/share/texmf-dist/tex/latex/pgf/math/pgfmath.sty
INPUT /usr/share/texmf-dist/tex/generic/pgf/math/pgfmath.code.tex
INPUT /usr/share/texmf-dist/tex/generic/pgf/math/pgfmath.code.tex
INPUT /usr/share/texmf-dist/tex/generic/pgf/utilities/pgffor.code.tex
INPUT /usr/share/texmf-dist/tex/generic/pgf/utilities/pgffor.code.tex
INPUT /usr/share/texmf-dist/tex/generic/pgf/math/pgfmath.code.tex
INPUT /usr/share/texmf-dist/tex/generic/pgf/frontendlayer/tikz/tikz.code.tex
INPUT /usr/share/texmf-dist/tex/generic/pgf/frontendlayer/tikz/tikz.code.tex
INPUT /usr/share/texmf-dist/tex/generic/pgf/libraries/pgflibraryplothandlers.code.tex
INPUT /usr/share/texmf-dist/tex/generic/pgf/libraries/pgflibraryplothandlers.code.tex
INPUT /usr/share/texmf-dist/tex/generic/pgf/modules/pgfmodulematrix.code.tex
INPUT /usr/share/texmf-dist/tex/generic/pgf/frontendlayer/tikz/libraries/tikzlibrarytopaths.code.tex
INPUT /usr/share/texmf-dist/tex/generic/pgf/frontendlayer/tikz/libraries/tikzlibrarytopaths.code.tex
INPUT /usr/share/texmf-dist/tex/generic/pgfplots/pgfplots.code.tex
INPUT /usr/share/texmf-dist/tex/generic/pgfplots/pgfplotscore.code.tex
INPUT /usr/share/texmf-dist/tex/generic/pgfplots/sys/pgfplotssysgeneric.code.tex
INPUT /usr/share/texmf-dist/tex/generic/pgfplots/libs/pgfplotslibrary.code.tex
INPUT /usr/share/texmf-dist/tex/generic/pgfplots/oldpgfcompatib/pgfplotsoldpgfsupp_loader.code.tex
INPUT /usr/share/texmf-dist/tex/generic/pgf/libraries/pgflibraryfpu.code.tex
INPUT /usr/share/texmf-dist/tex/generic/pgf/libraries/pgflibraryfpu.code.tex
INPUT /usr/share/texmf-dist/tex/generic/pgf/libraries/pgflibraryfpu.code.tex
INPUT /usr/share/texmf-dist/tex/generic/pgfplots/oldpgfcompatib/pgfplotsoldpgfsupp_pgflibraryfpu.code.tex
INPUT /usr/share/texmf-dist/tex/generic/pgfplots/oldpgfcompatib/pgfplotsoldpgfsupp_pgfmathfloat.code.tex
INPUT /usr/share/texmf-dist/tex/generic/pgfplots/util/pgfplotsutil.code.tex
INPUT /usr/share/texmf-dist/tex/generic/pgfplots/liststructure/pgfplotsliststructure.code.tex
INPUT /usr/share/texmf-dist/tex/generic/pgfplots/liststructure/pgfplotsliststructureext.code.tex
INPUT /usr/share/texmf-dist/tex/generic/pgfplots/liststructure/pgfplotsarray.code.tex
INPUT /usr/share/texmf-dist/tex/generic/pgfplots/liststructure/pgfplotsmatrix.code.tex
INPUT /usr/share/texmf-dist/tex/generic/pgfplots/numtable/pgfplotstableshared.code.tex
INPUT /usr/share/texmf-dist/tex/generic/pgfplots/liststructure/pgfplotsdeque.code.tex
INPUT /usr/share/texmf-dist/tex/generic/pgfplots/util/pgfplotsbinary.code.tex
INPUT /usr/share/texmf-dist/tex/generic/pgfplots/util/pgfplotsbinary.data.code.tex
INPUT /usr/share/texmf-dist/tex/generic/pgfplots/util/pgfplotsutil.verb.code.tex
INPUT /usr/share/texmf-dist/tex/generic/pgfplots/libs/pgflibrarypgfplots.surfshading.code.tex
INPUT /usr/share/texmf-dist/tex/generic/pgfplots/sys/pgflibrarypgfplots.surfshading.pgfsys-pdftex.def
INPUT /usr/share/texmf-dist/tex/generic/pgfplots/sys/pgflibrarypgfplots.surfshading.pgfsys-pdftex.def
INPUT /usr/share/texmf-dist/tex/generic/pgfplots/util/pgfplotscolormap.code.tex
INPUT /usr/share/texmf-dist/tex/generic/pgfplots/util/pgfplotscolor.code.tex
INPUT /usr/share/texmf-dist/tex/generic/pgfplots/pgfplotsstackedplots.code.tex
INPUT /usr/share/texmf-dist/tex/generic/pgfplots/pgfplotsplothandlers.code.tex
INPUT /usr/share/texmf-dist/tex/generic/pgfplots/pgfplotsmeshplothandler.code.tex
INPUT /usr/share/texmf-dist/tex/generic/pgfplots/pgfplotsmeshplotimage.code.tex
INPUT /usr/share/texmf-dist/tex/generic/pgfplots/pgfplots.scaling.code.tex
INPUT /usr/share/texmf-dist/tex/generic/pgfplots/pgfplotscoordprocessing.code.tex
INPUT /usr/share/texmf-dist/tex/generic/pgfplots/pgfplots.errorbars.code.tex
INPUT /usr/share/texmf-dist/tex/generic/pgfplots/pgfplots.markers.code.tex
INPUT /usr/share/texmf-dist/tex/generic/pgfplots/pgfplotsticks.code.tex
INPUT /usr/share/texmf-dist/tex/generic/pgfplots/pgfplots.paths.code.tex
INPUT /usr/share/texmf-dist/tex/generic/pgf/frontendlayer/tikz/libraries/tikzlibrarydecorations.code.tex
INPUT /usr/share/texmf-dist/tex/generic/pgf/frontendlayer/tikz/libraries/tikzlibrarydecorations.code.tex
INPUT /usr/share/texmf-dist/tex/generic/pgf/modules/pgfmoduledecorations.code.tex
INPUT /usr/share/texmf-dist/tex/generic/pgf/frontendlayer/tikz/libraries/tikzlibrarydecorations.pathmorphing.code.tex
INPUT /usr/share/texmf-dist/tex/generic/pgf/frontendlayer/tikz/libraries/tikzlibrarydecorations.pathmorphing.code.tex
INPUT /usr/share/texmf-dist/tex/generic/pgf/libraries/decorations/pgflibrarydecorations.pathmorphing.code.tex
INPUT /usr/share/texmf-dist/tex/generic/pgf/libraries/decorations/pgflibrarydecorations.pathmorphing.code.tex
INPUT /usr/share/texmf-dist/tex/generic/pgf/frontendlayer/tikz/libraries/tikzlibrarydecorations.pathreplacing.code.tex
INPUT /usr/share/texmf-dist/tex/generic/pgf/frontendlayer/tikz/libraries/tikzlibrarydecorations.pathreplacing.code.tex
INPUT /usr/share/texmf-dist/tex/generic/pgf/libraries/decorations/pgflibrarydecorations.pathreplacing.code.tex
INPUT /usr/share/texmf-dist/tex/generic/pgf/libraries/decorations/pgflibrarydecorations.pathreplacing.code.tex
INPUT /usr/share/texmf-dist/tex/generic/pgf/frontendlayer/tikz/libraries/tikzlibraryplotmarks.code.tex
INPUT /usr/share/texmf-dist/tex/generic/pgf/frontendlayer/tikz/libraries/tikzlibraryplotmarks.code.tex
INPUT /usr/share/texmf-dist/tex/generic/pgf/libraries/pgflibraryplotmarks.code.tex
INPUT /usr/share/texmf-dist/tex/generic/pgf/libraries/pgflibraryplotmarks.code.tex
INPUT /usr/share/texmf-dist/tex/latex/l3packages/xparse/xparse.sty
INPUT /usr/share/texmf-dist/tex/latex/l3packages/xparse/xparse.sty
INPUT /usr/share/texmf-dist/tex/latex/l3kernel/expl3.sty
INPUT /usr/share/texmf-dist/tex/latex/l3kernel/expl3.sty
INPUT /usr/share/texmf-dist/tex/latex/l3kernel/expl3-code.tex
INPUT /usr/share/texmf-dist/tex/latex/l3kernel/expl3-code.tex
INPUT /usr/share/texmf-dist/tex/generic/unicode-data/UnicodeData.txt
INPUT /usr/share/texmf-dist/tex/generic/unicode-data/CaseFolding.txt
INPUT /usr/share/texmf-dist/tex/generic/unicode-data/SpecialCasing.txt
INPUT /usr/share/texmf-dist/tex/latex/l3kernel/l3pdfmode.def
INPUT /usr/share/texmf-dist/tex/latex/l3kernel/l3pdfmode.def
INPUT /usr/share/texmf-dist/tex/latex/adjustbox/adjustbox.sty
INPUT /usr/share/texmf-dist/tex/latex/adjustbox/adjustbox.sty
INPUT /usr/share/texmf-dist/tex/latex/xkeyval/xkeyval.sty
INPUT /usr/share/texmf-dist/tex/latex/xkeyval/xkeyval.sty
INPUT /usr/share/texmf-dist/tex/generic/xkeyval/xkeyval.tex
INPUT /usr/share/texmf-dist/tex/generic/xkeyval/xkvutils.tex
INPUT /usr/share/texmf-dist/tex/latex/adjustbox/adjcalc.sty
INPUT /usr/share/texmf-dist/tex/latex/adjustbox/adjcalc.sty
INPUT /usr/share/texmf-dist/tex/latex/adjustbox/trimclip.sty
INPUT /usr/share/texmf-dist/tex/latex/adjustbox/trimclip.sty
INPUT /usr/share/texmf-dist/tex/latex/collectbox/collectbox.sty
INPUT /usr/share/texmf-dist/tex/latex/collectbox/collectbox.sty
INPUT /usr/share/texmf-dist/tex/latex/adjustbox/tc-pdftex.def
INPUT /usr/share/texmf-dist/tex/latex/adjustbox/tc-pdftex.def
INPUT /usr/share/texmf-dist/tex/latex/ifoddpage/ifoddpage.sty
INPUT /usr/share/texmf-dist/tex/latex/ifoddpage/ifoddpage.sty
INPUT /usr/share/texmf-dist/tex/latex/ifoddpage/ifoddpage.sty
INPUT /usr/share/texmf-dist/tex/latex/varwidth/varwidth.sty
INPUT /usr/share/texmf-dist/tex/latex/varwidth/varwidth.sty
INPUT /usr/share/texmf-dist/tex/latex/varwidth/varwidth.sty
INPUT /usr/share/texmf-dist/tex/latex/placeins/placeins.sty
INPUT /usr/share/texmf-dist/tex/latex/placeins/placeins.sty
INPUT /usr/share/texmf-dist/tex/latex/biblatex/lbx/ngerman.lbx
INPUT /usr/share/texmf-dist/tex/latex/biblatex/lbx/ngerman.lbx
INPUT /usr/share/texmf-dist/tex/latex/biblatex/lbx/german.lbx
INPUT /usr/share/texmf-dist/tex/latex/biblatex/lbx/german.lbx
INPUT ausarbeitung.aux
INPUT ausarbeitung.aux
INPUT chapters/einleitung.aux
INPUT chapters/einleitung.aux
INPUT chapters/definition.aux
INPUT chapters/definition.aux
INPUT chapters/detect.aux
INPUT chapters/detect.aux
INPUT chapters/recognition.aux
INPUT chapters/recognition.aux
INPUT chapters/merge.aux
INPUT chapters/merge.aux
INPUT chapters/evaluation.aux
INPUT chapters/evaluation.aux
INPUT chapters/final.aux
INPUT chapters/final.aux
INPUT chapters/anhang.aux
INPUT chapters/anhang.aux
INPUT chapters/eid.aux
INPUT chapters/eid.aux
OUTPUT ausarbeitung.aux
INPUT /usr/share/texmf-dist/tex/latex/txfonts/utxmia.fd
INPUT /usr/share/texmf-dist/tex/latex/txfonts/utxmia.fd
OUTPUT ausarbeitung-blx.bib
INPUT ausarbeitung.bbl
INPUT ausarbeitung.bbl
INPUT ausarbeitung.bbl
INPUT /usr/share/texmf-dist/tex/latex/hyperref/nameref.sty
INPUT /usr/share/texmf-dist/tex/latex/hyperref/nameref.sty
INPUT /usr/share/texmf-dist/tex/generic/oberdiek/gettitlestring.sty
INPUT /usr/share/texmf-dist/tex/generic/oberdiek/gettitlestring.sty
INPUT ausarbeitung.out
INPUT ausarbeitung.out
INPUT ausarbeitung.out
INPUT ausarbeitung.out
OUTPUT ausarbeitung.pdf
INPUT ./ausarbeitung.out
INPUT ./ausarbeitung.out
OUTPUT ausarbeitung.out
INPUT /usr/share/texmf-dist/tex/context/base/mkii/supp-pdf.mkii
INPUT /usr/share/texmf-dist/tex/context/base/mkii/supp-pdf.mkii
INPUT /usr/share/texmf-dist/tex/latex/oberdiek/epstopdf-base.sty
INPUT /usr/share/texmf-dist/tex/latex/oberdiek/epstopdf-base.sty
INPUT /usr/share/texmf-dist/tex/latex/oberdiek/grfext.sty
INPUT /usr/share/texmf-dist/tex/latex/oberdiek/grfext.sty
INPUT /usr/share/texmf-dist/tex/latex/latexconfig/epstopdf-sys.cfg
INPUT /usr/share/texmf-dist/tex/latex/latexconfig/epstopdf-sys.cfg
INPUT images/uni-logo.png
INPUT ./images/uni-logo.png
INPUT ./images/uni-logo.png
INPUT images/bartec-logo.jpg
INPUT ./images/bartec-logo.jpg
INPUT ./images/bartec-logo.jpg
INPUT /usr/share/texmf-dist/fonts/tfm/jknappen/ec/ecbx1200.tfm
INPUT /usr/share/texmf-dist/fonts/tfm/jknappen/ec/ecbx1728.tfm
INPUT /usr/share/texmf-dist/tex/latex/base/t1cmss.fd
INPUT /usr/share/texmf-dist/tex/latex/base/t1cmss.fd
INPUT /usr/share/texmf-dist/fonts/tfm/jknappen/ec/ecss1200.tfm
INPUT /usr/share/texmf-dist/fonts/tfm/jknappen/ec/ecsx1200.tfm
INPUT /usr/share/texmf-dist/fonts/tfm/jknappen/ec/ecsx2488.tfm
INPUT /usr/share/texmf-dist/fonts/tfm/jknappen/ec/ecsx1440.tfm
INPUT /usr/share/texmf-dist/fonts/tfm/jknappen/ec/ecrm1728.tfm
INPUT /usr/share/texmf-dist/fonts/tfm/public/cm/cmr17.tfm
INPUT /usr/share/texmf-dist/fonts/tfm/public/cm/cmmi12.tfm
INPUT /usr/share/texmf-dist/fonts/tfm/public/cm/cmmi12.tfm
INPUT /usr/share/texmf-dist/fonts/tfm/public/cm/cmsy10.tfm
INPUT /usr/share/texmf-dist/fonts/tfm/public/cm/cmsy10.tfm
INPUT /usr/share/texmf-dist/fonts/tfm/public/cm/cmex10.tfm
INPUT /usr/share/texmf-dist/fonts/tfm/public/cm/cmex10.tfm
INPUT /usr/share/texmf-dist/tex/latex/amsfonts/umsa.fd
INPUT /usr/share/texmf-dist/tex/latex/amsfonts/umsa.fd
INPUT /usr/share/texmf-dist/fonts/tfm/public/amsfonts/symbols/msam10.tfm
INPUT /usr/share/texmf-dist/fonts/tfm/public/amsfonts/symbols/msam10.tfm
INPUT /usr/share/texmf-dist/fonts/tfm/public/amsfonts/symbols/msam10.tfm
INPUT /usr/share/texmf-dist/tex/latex/amsfonts/umsb.fd
INPUT /usr/share/texmf-dist/tex/latex/amsfonts/umsb.fd
INPUT /usr/share/texmf-dist/fonts/tfm/public/amsfonts/symbols/msbm10.tfm
INPUT /usr/share/texmf-dist/fonts/tfm/public/amsfonts/symbols/msbm10.tfm
INPUT /usr/share/texmf-dist/fonts/tfm/public/amsfonts/symbols/msbm10.tfm
INPUT /usr/share/texmf-dist/fonts/tfm/public/txfonts/txmia.tfm
INPUT /usr/share/texmf-dist/fonts/tfm/public/txfonts/txmia.tfm
INPUT /usr/share/texmf-dist/fonts/tfm/public/txfonts/txmia.tfm
INPUT /var/lib/texmf/fonts/map/pdftex/updmap/pdftex.map
INPUT ausarbeitung.toc
INPUT ausarbeitung.toc
INPUT /usr/share/texmf-dist/fonts/tfm/public/cm/cmr8.tfm
INPUT /usr/share/texmf-dist/fonts/tfm/public/cm/cmr6.tfm
INPUT /usr/share/texmf-dist/fonts/tfm/public/cm/cmmi8.tfm
INPUT /usr/share/texmf-dist/fonts/tfm/public/cm/cmmi6.tfm
INPUT /usr/share/texmf-dist/fonts/tfm/public/cm/cmsy8.tfm
INPUT /usr/share/texmf-dist/fonts/tfm/public/cm/cmsy6.tfm
INPUT /usr/share/texmf-dist/fonts/tfm/public/amsfonts/cmextra/cmex8.tfm
INPUT /usr/share/texmf-dist/fonts/tfm/public/amsfonts/cmextra/cmex7.tfm
INPUT /usr/share/texmf-dist/fonts/tfm/public/amsfonts/symbols/msam10.tfm
INPUT /usr/share/texmf-dist/fonts/tfm/public/amsfonts/symbols/msam7.tfm
INPUT /usr/share/texmf-dist/fonts/tfm/public/amsfonts/symbols/msbm10.tfm
INPUT /usr/share/texmf-dist/fonts/tfm/public/amsfonts/symbols/msbm7.tfm
INPUT /usr/share/texmf-dist/fonts/tfm/public/txfonts/txmia.tfm
INPUT /usr/share/texmf-dist/fonts/tfm/public/txfonts/txmia.tfm
OUTPUT ausarbeitung.toc
OUTPUT chapters/einleitung.aux
INPUT chapters/einleitung.tex
INPUT chapters/einleitung.tex
INPUT /usr/share/texmf-dist/fonts/tfm/jknappen/ec/ecsx1728.tfm
INPUT images/tankschacht.jpg
INPUT ./images/tankschacht.jpg
INPUT ./images/tankschacht.jpg
OUTPUT chapters/definition.aux
INPUT chapters/definition.tex
INPUT chapters/definition.tex
INPUT images/pipeline/pipe.pdf
INPUT ./images/pipeline/pipe.pdf
INPUT ./images/pipeline/pipe.pdf
INPUT images/image.eps
INPUT ./images/image.eps
INPUT ./images/image.eps
INPUT ./images/image-eps-converted-to.pdf
INPUT ./images/image-eps-converted-to.pdf
INPUT ./images/image.eps
INPUT ./images/image-eps-converted-to.pdf
INPUT ./images/image-eps-converted-to.pdf
INPUT ./images/image-eps-converted-to.pdf
OUTPUT chapters/detect.aux
INPUT chapters/detect.tex
INPUT chapters/detect.tex
INPUT /usr/share/texmf-dist/fonts/tfm/jknappen/ec/ecrm0800.tfm
INPUT /usr/share/texmf-dist/fonts/tfm/jknappen/ec/ecrm1000.tfm
INPUT /usr/share/texmf-dist/fonts/tfm/public/amsfonts/cmextra/cmex7.tfm
INPUT /usr/share/texmf-dist/fonts/tfm/public/amsfonts/cmextra/cmex7.tfm
INPUT /usr/share/texmf-dist/fonts/tfm/public/amsfonts/symbols/msam7.tfm
INPUT /usr/share/texmf-dist/fonts/tfm/public/amsfonts/symbols/msam5.tfm
INPUT /usr/share/texmf-dist/fonts/tfm/public/amsfonts/symbols/msbm7.tfm
INPUT /usr/share/texmf-dist/fonts/tfm/public/amsfonts/symbols/msbm5.tfm
INPUT /usr/share/texmf-dist/fonts/tfm/public/txfonts/txmia.tfm
INPUT /usr/share/texmf-dist/fonts/tfm/public/txfonts/txmia.tfm
INPUT /usr/share/texmf-dist/fonts/tfm/jknappen/ec/ecrm0700.tfm
INPUT images/neighbours.eps
INPUT ./images/neighbours.eps
INPUT ./images/neighbours.eps
INPUT ./images/neighbours-eps-converted-to.pdf
INPUT ./images/neighbours-eps-converted-to.pdf
INPUT ./images/neighbours.eps
INPUT ./images/neighbours-eps-converted-to.pdf
INPUT ./images/neighbours-eps-converted-to.pdf
INPUT ./images/neighbours-eps-converted-to.pdf
INPUT images/cc.jpg
INPUT ./images/cc.jpg
INPUT ./images/cc.jpg
INPUT images/cc-marked.jpg
INPUT ./images/cc-marked.jpg
INPUT ./images/cc-marked.jpg
INPUT /usr/share/texmf-dist/fonts/tfm/jknappen/ec/ecrm0600.tfm
INPUT images/mser/mserInput.eps
INPUT ./images/mser/mserInput.eps
INPUT ./images/mser/mserInput.eps
INPUT ./images/mser/mserInput-eps-converted-to.pdf
INPUT ./images/mser/mserInput-eps-converted-to.pdf
INPUT ./images/mser/mserInput.eps
INPUT ./images/mser/mserInput-eps-converted-to.pdf
INPUT ./images/mser/mserInput-eps-converted-to.pdf
INPUT ./images/mser/mserInput-eps-converted-to.pdf
INPUT images/mser/detectedMser.eps
INPUT ./images/mser/detectedMser.eps
INPUT ./images/mser/detectedMser.eps
INPUT ./images/mser/detectedMser-eps-converted-to.pdf
INPUT ./images/mser/detectedMser-eps-converted-to.pdf
INPUT ./images/mser/detectedMser.eps
INPUT ./images/mser/detectedMser-eps-converted-to.pdf
INPUT ./images/mser/detectedMser-eps-converted-to.pdf
INPUT ./images/mser/detectedMser-eps-converted-to.pdf
INPUT images/thresh/original.jpg
INPUT ./images/thresh/original.jpg
INPUT ./images/thresh/original.jpg
INPUT images/thresh/thresh-32.png
INPUT ./images/thresh/thresh-32.png
INPUT ./images/thresh/thresh-32.png
INPUT images/thresh/thresh-70.png
INPUT ./images/thresh/thresh-70.png
INPUT ./images/thresh/thresh-70.png
INPUT images/thresh/thresh-111.png
INPUT ./images/thresh/thresh-111.png
INPUT ./images/thresh/thresh-111.png
INPUT images/thresh/thresh-255.png
INPUT ./images/thresh/thresh-255.png
INPUT ./images/thresh/thresh-255.png
INPUT images/comptree.pdf
INPUT ./images/comptree.pdf
INPUT ./images/comptree.pdf
INPUT /usr/share/texmf-dist/tex/latex/base/omscmr.fd
INPUT /usr/share/texmf-dist/tex/latex/base/omscmr.fd
INPUT images/grads/grads.eps
INPUT ./images/grads/grads.eps
INPUT ./images/grads/grads.eps
INPUT ./images/grads/grads-eps-converted-to.pdf
INPUT ./images/grads/grads-eps-converted-to.pdf
INPUT ./images/grads/grads.eps
INPUT ./images/grads/grads-eps-converted-to.pdf
INPUT ./images/grads/grads-eps-converted-to.pdf
INPUT ./images/grads/grads-eps-converted-to.pdf
INPUT images/grads/threed.eps
INPUT ./images/grads/threed.eps
INPUT ./images/grads/threed.eps
INPUT ./images/grads/threed-eps-converted-to.pdf
INPUT ./images/grads/threed-eps-converted-to.pdf
INPUT ./images/grads/threed.eps
INPUT ./images/grads/threed-eps-converted-to.pdf
INPUT ./images/grads/threed-eps-converted-to.pdf
INPUT ./images/grads/threed-eps-converted-to.pdf
INPUT images/kernel.pdf
INPUT ./images/kernel.pdf
INPUT ./images/kernel.pdf
INPUT /usr/share/texmf-dist/fonts/tfm/jknappen/ec/ecti1000.tfm
INPUT images/canny/blurred.jpg
INPUT ./images/canny/blurred.jpg
INPUT ./images/canny/blurred.jpg
INPUT images/canny/canny.jpg
INPUT ./images/canny/canny.jpg
INPUT ./images/canny/canny.jpg
INPUT images/gaussian.eps
INPUT ./images/gaussian.eps
INPUT ./images/gaussian.eps
INPUT ./images/gaussian-eps-converted-to.pdf
INPUT ./images/gaussian-eps-converted-to.pdf
INPUT ./images/gaussian.eps
INPUT ./images/gaussian-eps-converted-to.pdf
INPUT ./images/gaussian-eps-converted-to.pdf
INPUT ./images/gaussian-eps-converted-to.pdf
INPUT images/canny/quant.pdf
INPUT ./images/canny/quant.pdf
INPUT ./images/canny/quant.pdf
INPUT images/canny/hyst.eps
INPUT ./images/canny/hyst.eps
INPUT ./images/canny/hyst.eps
INPUT ./images/canny/hyst-eps-converted-to.pdf
INPUT ./images/canny/hyst-eps-converted-to.pdf
INPUT ./images/canny/hyst.eps
INPUT ./images/canny/hyst-eps-converted-to.pdf
INPUT ./images/canny/hyst-eps-converted-to.pdf
INPUT ./images/canny/hyst-eps-converted-to.pdf
INPUT images/eee/input.eps
INPUT ./images/eee/input.eps
INPUT ./images/eee/input.eps
INPUT ./images/eee/input-eps-converted-to.pdf
INPUT ./images/eee/input-eps-converted-to.pdf
INPUT ./images/eee/input.eps
INPUT ./images/eee/input-eps-converted-to.pdf
INPUT ./images/eee/input-eps-converted-to.pdf
INPUT ./images/eee/input-eps-converted-to.pdf
INPUT images/eee/failedMser.eps
INPUT ./images/eee/failedMser.eps
INPUT ./images/eee/failedMser.eps
INPUT ./images/eee/failedMser-eps-converted-to.pdf
INPUT ./images/eee/failedMser-eps-converted-to.pdf
INPUT ./images/eee/failedMser.eps
INPUT ./images/eee/failedMser-eps-converted-to.pdf
INPUT ./images/eee/failedMser-eps-converted-to.pdf
INPUT ./images/eee/failedMser-eps-converted-to.pdf
INPUT images/eee/eee.eps
INPUT ./images/eee/eee.eps
INPUT ./images/eee/eee.eps
INPUT ./images/eee/eee-eps-converted-to.pdf
INPUT ./images/eee/eee-eps-converted-to.pdf
INPUT ./images/eee/eee.eps
INPUT ./images/eee/eee-eps-converted-to.pdf
INPUT ./images/eee/eee-eps-converted-to.pdf
INPUT ./images/eee/eee-eps-converted-to.pdf
INPUT /usr/share/texmf-dist/fonts/tfm/jknappen/ec/ecti1200.tfm
INPUT /usr/share/texmf-dist/fonts/tfm/jknappen/ec/ecbx0800.tfm
INPUT /usr/share/texmf-dist/tex/latex/base/t1cmtt.fd
INPUT /usr/share/texmf-dist/tex/latex/base/t1cmtt.fd
INPUT /usr/share/texmf-dist/fonts/tfm/jknappen/ec/ectt1200.tfm
INPUT images/swt/input.eps
INPUT ./images/swt/input.eps
INPUT ./images/swt/input.eps
INPUT ./images/swt/input-eps-converted-to.pdf
INPUT ./images/swt/input-eps-converted-to.pdf
INPUT ./images/swt/input.eps
INPUT ./images/swt/input-eps-converted-to.pdf
INPUT ./images/swt/input-eps-converted-to.pdf
INPUT ./images/swt/input-eps-converted-to.pdf
INPUT images/swt/distance.eps
INPUT ./images/swt/distance.eps
INPUT ./images/swt/distance.eps
INPUT ./images/swt/distance-eps-converted-to.pdf
INPUT ./images/swt/distance-eps-converted-to.pdf
INPUT ./images/swt/distance.eps
INPUT ./images/swt/distance-eps-converted-to.pdf
INPUT ./images/swt/distance-eps-converted-to.pdf
INPUT ./images/swt/distance-eps-converted-to.pdf
INPUT images/swt/swt.eps
INPUT ./images/swt/swt.eps
INPUT ./images/swt/swt.eps
INPUT ./images/swt/swt-eps-converted-to.pdf
INPUT ./images/swt/swt-eps-converted-to.pdf
INPUT ./images/swt/swt.eps
INPUT ./images/swt/swt-eps-converted-to.pdf
INPUT ./images/swt/swt-eps-converted-to.pdf
INPUT ./images/swt/swt-eps-converted-to.pdf
INPUT images/swt/textthreed.eps
INPUT ./images/swt/textthreed.eps
INPUT ./images/swt/textthreed.eps
INPUT ./images/swt/textthreed-eps-converted-to.pdf
INPUT ./images/swt/textthreed-eps-converted-to.pdf
INPUT ./images/swt/textthreed.eps
INPUT ./images/swt/textthreed-eps-converted-to.pdf
INPUT ./images/swt/textthreed-eps-converted-to.pdf
INPUT ./images/swt/textthreed-eps-converted-to.pdf
INPUT images/swt/swtthreed.eps
INPUT ./images/swt/swtthreed.eps
INPUT ./images/swt/swtthreed.eps
INPUT ./images/swt/swtthreed-eps-converted-to.pdf
INPUT ./images/swt/swtthreed-eps-converted-to.pdf
INPUT ./images/swt/swtthreed.eps
INPUT ./images/swt/swtthreed-eps-converted-to.pdf
INPUT ./images/swt/swtthreed-eps-converted-to.pdf
INPUT ./images/swt/swtthreed-eps-converted-to.pdf
INPUT /usr/share/texmf-dist/fonts/tfm/jknappen/ec/ecbi1200.tfm
INPUT images/detect/overview.pdf
INPUT ./images/detect/overview.pdf
INPUT ./images/detect/overview.pdf
OUTPUT chapters/recognition.aux
INPUT chapters/recognition.tex
INPUT chapters/recognition.tex
INPUT images/recognize/nn/neuron.pdf
INPUT ./images/recognize/nn/neuron.pdf
INPUT ./images/recognize/nn/neuron.pdf
INPUT images/recognize/nn/net.pdf
INPUT ./images/recognize/nn/net.pdf
INPUT ./images/recognize/nn/net.pdf
INPUT images/recognize/nn/gradBegin.eps
INPUT ./images/recognize/nn/gradBegin.eps
INPUT ./images/recognize/nn/gradBegin.eps
INPUT ./images/recognize/nn/gradBegin-eps-converted-to.pdf
INPUT ./images/recognize/nn/gradBegin-eps-converted-to.pdf
INPUT ./images/recognize/nn/gradBegin.eps
INPUT ./images/recognize/nn/gradBegin-eps-converted-to.pdf
INPUT ./images/recognize/nn/gradBegin-eps-converted-to.pdf
INPUT ./images/recognize/nn/gradBegin-eps-converted-to.pdf
INPUT images/recognize/nn/gradFinish.eps
INPUT ./images/recognize/nn/gradFinish.eps
INPUT ./images/recognize/nn/gradFinish.eps
INPUT ./images/recognize/nn/gradFinish-eps-converted-to.pdf
INPUT ./images/recognize/nn/gradFinish-eps-converted-to.pdf
INPUT ./images/recognize/nn/gradFinish.eps
INPUT ./images/recognize/nn/gradFinish-eps-converted-to.pdf
INPUT ./images/recognize/nn/gradFinish-eps-converted-to.pdf
INPUT ./images/recognize/nn/gradFinish-eps-converted-to.pdf
INPUT images/recognize/synth.pdf
INPUT ./images/recognize/synth.pdf
INPUT ./images/recognize/synth.pdf
INPUT images/recognize/samples/1.jpg
INPUT ./images/recognize/samples/1.jpg
INPUT ./images/recognize/samples/1.jpg
INPUT images/recognize/samples/2.jpg
INPUT ./images/recognize/samples/2.jpg
INPUT ./images/recognize/samples/2.jpg
INPUT images/recognize/samples/3.jpg
INPUT ./images/recognize/samples/3.jpg
INPUT ./images/recognize/samples/3.jpg
INPUT images/recognize/samples/4.jpg
INPUT ./images/recognize/samples/4.jpg
INPUT ./images/recognize/samples/4.jpg
INPUT images/recognize/samples/5.jpg
INPUT ./images/recognize/samples/5.jpg
INPUT ./images/recognize/samples/5.jpg
INPUT images/recognize/samples/6.jpg
INPUT ./images/recognize/samples/6.jpg
INPUT ./images/recognize/samples/6.jpg
INPUT images/recognize/samples/7.jpg
INPUT ./images/recognize/samples/7.jpg
INPUT ./images/recognize/samples/7.jpg
INPUT images/recognize/samples/8.jpg
INPUT ./images/recognize/samples/8.jpg
INPUT ./images/recognize/samples/8.jpg
INPUT images/recognize/samples/9.jpg
INPUT ./images/recognize/samples/9.jpg
INPUT ./images/recognize/samples/9.jpg
INPUT /usr/share/texmf-dist/fonts/tfm/jknappen/ec/ecti0800.tfm
INPUT /usr/share/texmf-dist/fonts/tfm/jknappen/ec/ecti0600.tfm
INPUT images/recognize/cnn.pdf
INPUT ./images/recognize/cnn.pdf
INPUT ./images/recognize/cnn.pdf
OUTPUT chapters/merge.aux
INPUT chapters/merge.tex
INPUT chapters/merge.tex
INPUT images/merge/detected.jpg
INPUT ./images/merge/detected.jpg
INPUT ./images/merge/detected.jpg
INPUT images/merge/extended.jpg
INPUT ./images/merge/extended.jpg
INPUT ./images/merge/extended.jpg
INPUT images/merge/merged.jpg
INPUT ./images/merge/merged.jpg
INPUT ./images/merge/merged.jpg
OUTPUT chapters/evaluation.aux
INPUT chapters/evaluation.tex
INPUT chapters/evaluation.tex
INPUT images/eval/correct/1.png
INPUT ./images/eval/correct/1.png
INPUT ./images/eval/correct/1.png
INPUT images/eval/correct/2.png
INPUT ./images/eval/correct/2.png
INPUT ./images/eval/correct/2.png
INPUT images/eval/correct/3.png
INPUT ./images/eval/correct/3.png
INPUT ./images/eval/correct/3.png
INPUT images/eval/correct/5.png
INPUT ./images/eval/correct/5.png
INPUT ./images/eval/correct/5.png
INPUT images/eval/correct/6.png
INPUT ./images/eval/correct/6.png
INPUT ./images/eval/correct/6.png
INPUT images/eval/correct/7.png
INPUT ./images/eval/correct/7.png
INPUT ./images/eval/correct/7.png
INPUT images/eval/correct/4.png
INPUT ./images/eval/correct/4.png
INPUT ./images/eval/correct/4.png
INPUT images/eval/correct/11.png
INPUT ./images/eval/correct/11.png
INPUT ./images/eval/correct/11.png
INPUT images/eval/correct/9.png
INPUT ./images/eval/correct/9.png
INPUT ./images/eval/correct/9.png
INPUT images/eval/correct/8.png
INPUT ./images/eval/correct/8.png
INPUT ./images/eval/correct/8.png
INPUT images/eval/correct/10.png
INPUT ./images/eval/correct/10.png
INPUT ./images/eval/correct/10.png
INPUT /usr/share/texmf-dist/fonts/tfm/jknappen/ec/ecbx0600.tfm
INPUT images/eval/recog/correct/1.jpg
INPUT ./images/eval/recog/correct/1.jpg
INPUT ./images/eval/recog/correct/1.jpg
INPUT images/eval/recog/correct/2.jpg
INPUT ./images/eval/recog/correct/2.jpg
INPUT ./images/eval/recog/correct/2.jpg
INPUT images/eval/recog/correct/3.jpg
INPUT ./images/eval/recog/correct/3.jpg
INPUT ./images/eval/recog/correct/3.jpg
INPUT images/eval/recog/correct/4.jpg
INPUT ./images/eval/recog/correct/4.jpg
INPUT ./images/eval/recog/correct/4.jpg
INPUT images/eval/recog/correct/5.jpg
INPUT ./images/eval/recog/correct/5.jpg
INPUT ./images/eval/recog/correct/5.jpg
INPUT images/eval/recog/correct/6.jpg
INPUT ./images/eval/recog/correct/6.jpg
INPUT ./images/eval/recog/correct/6.jpg
INPUT images/eval/recog/correct/8.jpg
INPUT ./images/eval/recog/correct/8.jpg
INPUT ./images/eval/recog/correct/8.jpg
INPUT images/eval/recog/correct/9.jpg
INPUT ./images/eval/recog/correct/9.jpg
INPUT ./images/eval/recog/correct/9.jpg
INPUT images/eval/recog/false/1.jpg
INPUT ./images/eval/recog/false/1.jpg
INPUT ./images/eval/recog/false/1.jpg
INPUT images/eval/recog/false/2.jpg
INPUT ./images/eval/recog/false/2.jpg
INPUT ./images/eval/recog/false/2.jpg
INPUT images/eval/recog/false/3.jpg
INPUT ./images/eval/recog/false/3.jpg
INPUT ./images/eval/recog/false/3.jpg
INPUT images/eval/recog/false/4.jpg
INPUT ./images/eval/recog/false/4.jpg
INPUT ./images/eval/recog/false/4.jpg
INPUT images/eval/recog/false/5.jpg
INPUT ./images/eval/recog/false/5.jpg
INPUT ./images/eval/recog/false/5.jpg
INPUT images/eval/recog/false/6.jpg
INPUT ./images/eval/recog/false/6.jpg
INPUT ./images/eval/recog/false/6.jpg
INPUT images/eval/recog/false/7.jpg
INPUT ./images/eval/recog/false/7.jpg
INPUT ./images/eval/recog/false/7.jpg
INPUT images/eval/confuse.eps
INPUT ./images/eval/confuse.eps
INPUT ./images/eval/confuse.eps
INPUT ./images/eval/confuse-eps-converted-to.pdf
INPUT ./images/eval/confuse-eps-converted-to.pdf
INPUT ./images/eval/confuse.eps
INPUT ./images/eval/confuse-eps-converted-to.pdf
INPUT ./images/eval/confuse-eps-converted-to.pdf
INPUT ./images/eval/confuse-eps-converted-to.pdf
INPUT /usr/share/texmf-dist/fonts/tfm/jknappen/ec/ecrm1095.tfm
INPUT /usr/share/texmf-dist/fonts/tfm/public/cm/cmr10.tfm
INPUT /usr/share/texmf-dist/fonts/tfm/public/cm/cmmi10.tfm
INPUT /usr/share/texmf-dist/fonts/tfm/public/cm/cmsy10.tfm
INPUT /usr/share/texmf-dist/fonts/tfm/public/cm/cmex10.tfm
INPUT /usr/share/texmf-dist/fonts/tfm/public/amsfonts/symbols/msam10.tfm
INPUT /usr/share/texmf-dist/fonts/tfm/public/amsfonts/symbols/msbm10.tfm
INPUT /usr/share/texmf-dist/fonts/tfm/public/txfonts/txmia.tfm
OUTPUT chapters/final.aux
INPUT chapters/final.tex
INPUT chapters/final.tex
INPUT /usr/share/texmf-dist/fonts/tfm/jknappen/ec/eccc1200.tfm
INPUT ausarbeitung.lof
INPUT ausarbeitung.lof
OUTPUT ausarbeitung.lof
INPUT ausarbeitung.loa
INPUT ausarbeitung.loa
OUTPUT ausarbeitung.loa
OUTPUT chapters/anhang.aux
INPUT chapters/anhang.tex
INPUT chapters/anhang.tex
OUTPUT chapters/eid.aux
INPUT chapters/eid.tex
INPUT chapters/eid.tex
INPUT ausarbeitung.aux
INPUT chapters/einleitung.aux
INPUT chapters/einleitung.aux
INPUT chapters/definition.aux
INPUT chapters/definition.aux
INPUT chapters/detect.aux
INPUT chapters/detect.aux
INPUT chapters/recognition.aux
INPUT chapters/recognition.aux
INPUT chapters/merge.aux
INPUT chapters/merge.aux
INPUT chapters/evaluation.aux
INPUT chapters/evaluation.aux
INPUT chapters/final.aux
INPUT chapters/final.aux
INPUT chapters/anhang.aux
INPUT chapters/anhang.aux
INPUT chapters/eid.aux
INPUT chapters/eid.aux
INPUT ./ausarbeitung.out
INPUT ./ausarbeitung.out
INPUT ausarbeitung.run.xml
OUTPUT ausarbeitung.run.xml
INPUT /usr/share/texmf-dist/fonts/enc/dvips/cm-super/cm-super-t1.enc
INPUT /usr/share/texmf-dist/fonts/type1/public/amsfonts/cm/cmex10.pfb
INPUT /usr/share/texmf-dist/fonts/type1/public/amsfonts/cmextra/cmex8.pfb
INPUT /usr/share/texmf-dist/fonts/type1/public/amsfonts/cm/cmmi10.pfb
INPUT /usr/share/texmf-dist/fonts/type1/public/amsfonts/cm/cmmi12.pfb
INPUT /usr/share/texmf-dist/fonts/type1/public/amsfonts/cm/cmmi5.pfb
INPUT /usr/share/texmf-dist/fonts/type1/public/amsfonts/cm/cmmi6.pfb
INPUT /usr/share/texmf-dist/fonts/type1/public/amsfonts/cm/cmmi7.pfb
INPUT /usr/share/texmf-dist/fonts/type1/public/amsfonts/cm/cmmi8.pfb
INPUT /usr/share/texmf-dist/fonts/type1/public/amsfonts/cm/cmr10.pfb
INPUT /usr/share/texmf-dist/fonts/type1/public/amsfonts/cm/cmr12.pfb
INPUT /usr/share/texmf-dist/fonts/type1/public/amsfonts/cm/cmr6.pfb
INPUT /usr/share/texmf-dist/fonts/type1/public/amsfonts/cm/cmr7.pfb
INPUT /usr/share/texmf-dist/fonts/type1/public/amsfonts/cm/cmr8.pfb
INPUT /usr/share/texmf-dist/fonts/type1/public/amsfonts/cm/cmsy10.pfb
INPUT /usr/share/texmf-dist/fonts/type1/public/amsfonts/cm/cmsy6.pfb
INPUT /usr/share/texmf-dist/fonts/type1/public/amsfonts/cm/cmsy7.pfb
INPUT /usr/share/texmf-dist/fonts/type1/public/amsfonts/cm/cmsy8.pfb
INPUT /usr/share/texmf-dist/fonts/type1/public/cm-super/sfbi1200.pfb
INPUT /usr/share/texmf-dist/fonts/type1/public/cm-super/sfbx0800.pfb
INPUT /usr/share/texmf-dist/fonts/type1/public/cm-super/sfbx1200.pfb
INPUT /usr/share/texmf-dist/fonts/type1/public/cm-super/sfbx1728.pfb
INPUT /usr/share/texmf-dist/fonts/type1/public/cm-super/sfcc1200.pfb
INPUT /usr/share/texmf-dist/fonts/type1/public/cm-super/sfrm0700.pfb
INPUT /usr/share/texmf-dist/fonts/type1/public/cm-super/sfrm0800.pfb
INPUT /usr/share/texmf-dist/fonts/type1/public/cm-super/sfrm1000.pfb
INPUT /usr/share/texmf-dist/fonts/type1/public/cm-super/sfrm1095.pfb
INPUT /usr/share/texmf-dist/fonts/type1/public/cm-super/sfrm1200.pfb
INPUT /usr/share/texmf-dist/fonts/type1/public/cm-super/sfrm1728.pfb
INPUT /usr/share/texmf-dist/fonts/type1/public/cm-super/sfsx1200.pfb
INPUT /usr/share/texmf-dist/fonts/type1/public/cm-super/sfsx1440.pfb
INPUT /usr/share/texmf-dist/fonts/type1/public/cm-super/sfsx1728.pfb
INPUT /usr/share/texmf-dist/fonts/type1/public/cm-super/sfsx2488.pfb
INPUT /usr/share/texmf-dist/fonts/type1/public/cm-super/sfti1000.pfb
INPUT /usr/share/texmf-dist/fonts/type1/public/cm-super/sfti1200.pfb
INPUT /usr/share/texmf-dist/fonts/type1/public/cm-super/sftt1200.pfb
INPUT /usr/share/texmf-dist/fonts/type1/public/txfonts/txmia.pfb
