\relax 
\providecommand\hyper@newdestlabel[2]{}
\providecommand*\new@tpo@label[2]{}
\catcode `"\active 
\bibstyle{biblatex}
\bibdata{ausarbeitung-blx,bib}
\citation{biblatex-control}
\abx@aux@sortscheme{none}
\abx@aux@refcontext{none/global/}
\providecommand\HyperFirstAtBeginDocument{\AtBeginDocument}
\HyperFirstAtBeginDocument{\ifx\hyper@anchor\@undefined
\global\let\oldcontentsline\contentsline
\gdef\contentsline#1#2#3#4{\oldcontentsline{#1}{#2}{#3}}
\global\let\oldnewlabel\newlabel
\gdef\newlabel#1#2{\newlabelxx{#1}#2}
\gdef\newlabelxx#1#2#3#4#5#6{\oldnewlabel{#1}{{#2}{#3}}}
\AtEndDocument{\ifx\hyper@anchor\@undefined
\let\contentsline\oldcontentsline
\let\newlabel\oldnewlabel
\fi}
\fi}
\global\let\hyper@last\relax 
\gdef\HyperFirstAtBeginDocument#1{#1}
\providecommand\HyField@AuxAddToFields[1]{}
\providecommand\HyField@AuxAddToCoFields[2]{}
\providecommand \oddpage@label [2]{}
\@writefile{toc}{\boolfalse {citerequest}\boolfalse {citetracker}\boolfalse {pagetracker}\boolfalse {backtracker}\relax }
\@writefile{lof}{\boolfalse {citerequest}\boolfalse {citetracker}\boolfalse {pagetracker}\boolfalse {backtracker}\relax }
\@writefile{lot}{\boolfalse {citerequest}\boolfalse {citetracker}\boolfalse {pagetracker}\boolfalse {backtracker}\relax }
\select@language{ngerman}
\@writefile{toc}{\defcounter {refsection}{0}\relax }\@writefile{toc}{\select@language{ngerman}}
\@writefile{lof}{\defcounter {refsection}{0}\relax }\@writefile{lof}{\select@language{ngerman}}
\@writefile{lot}{\defcounter {refsection}{0}\relax }\@writefile{lot}{\select@language{ngerman}}
\@input{chapters/einleitung.aux}
\citation{helinski2012report}
\abx@aux@cite{helinski2012report}
\abx@aux@segm{0}{0}{helinski2012report}
\citation{hauger1995reading}
\abx@aux@cite{hauger1995reading}
\abx@aux@segm{0}{0}{hauger1995reading}
\citation{ocra}
\abx@aux@cite{ocra}
\abx@aux@segm{0}{0}{ocra}
\citation{icdar}
\abx@aux@cite{icdar}
\abx@aux@segm{0}{0}{icdar}
\@input{chapters/definition.aux}
\citation{burger2016digital}
\abx@aux@cite{burger2016digital}
\abx@aux@segm{0}{0}{burger2016digital}
\citation{burger2016digital}
\abx@aux@segm{0}{0}{burger2016digital}
\citation{burger2016digital}
\abx@aux@segm{0}{0}{burger2016digital}
\@input{chapters/detect.aux}
\citation{ye2015text}
\abx@aux@cite{ye2015text}
\abx@aux@segm{0}{0}{ye2015text}
\citation{chen2011robust}
\abx@aux@cite{chen2011robust}
\abx@aux@segm{0}{0}{chen2011robust}
\citation{cc}
\abx@aux@cite{cc}
\abx@aux@segm{0}{0}{cc}
\citation{cc}
\abx@aux@segm{0}{0}{cc}
\citation{cc}
\abx@aux@segm{0}{0}{cc}
\citation{cc}
\abx@aux@segm{0}{0}{cc}
\citation{matgeo}
\abx@aux@cite{matgeo}
\abx@aux@segm{0}{0}{matgeo}
\citation{matgeo}
\abx@aux@segm{0}{0}{matgeo}
\citation{matas2004robust}
\abx@aux@cite{matas2004robust}
\abx@aux@segm{0}{0}{matas2004robust}
\citation{neumann2010method}
\abx@aux@cite{neumann2010method}
\abx@aux@segm{0}{0}{neumann2010method}
\citation{shi2013scene}
\abx@aux@cite{shi2013scene}
\abx@aux@segm{0}{0}{shi2013scene}
\citation{chen2011robust}
\abx@aux@segm{0}{0}{chen2011robust}
\citation{chen2011robust}
\abx@aux@segm{0}{0}{chen2011robust}
\citation{matas2004robust}
\abx@aux@segm{0}{0}{matas2004robust}
\citation{matas2004robust}
\abx@aux@segm{0}{0}{matas2004robust}
\citation{matas2004robust}
\abx@aux@segm{0}{0}{matas2004robust}
\citation{donoser2006efficient}
\abx@aux@cite{donoser2006efficient}
\abx@aux@segm{0}{0}{donoser2006efficient}
\citation{donoser2006efficient}
\abx@aux@segm{0}{0}{donoser2006efficient}
\citation{donoser2006efficient}
\abx@aux@segm{0}{0}{donoser2006efficient}
\citation{donoser2006efficient}
\abx@aux@segm{0}{0}{donoser2006efficient}
\citation{vedaldi08vlfeat}
\abx@aux@cite{vedaldi08vlfeat}
\abx@aux@segm{0}{0}{vedaldi08vlfeat}
\citation{opencvfeature}
\abx@aux@cite{opencvfeature}
\abx@aux@segm{0}{0}{opencvfeature}
\citation{burger2016digital}
\abx@aux@segm{0}{0}{burger2016digital}
\citation{burger2016digital}
\abx@aux@segm{0}{0}{burger2016digital}
\citation{opencvGrad}
\abx@aux@cite{opencvGrad}
\abx@aux@segm{0}{0}{opencvGrad}
\citation{jacobs2005correlation}
\abx@aux@cite{jacobs2005correlation}
\abx@aux@segm{0}{0}{jacobs2005correlation}
\citation{jacobsimage}
\abx@aux@cite{jacobsimage}
\abx@aux@segm{0}{0}{jacobsimage}
\citation{burger2016digital}
\abx@aux@segm{0}{0}{burger2016digital}
\citation{opencvconv}
\abx@aux@cite{opencvconv}
\abx@aux@segm{0}{0}{opencvconv}
\citation{jacobs2005correlation}
\abx@aux@segm{0}{0}{jacobs2005correlation}
\citation{jacobs2005correlation}
\abx@aux@segm{0}{0}{jacobs2005correlation}
\citation{jacobs2005correlation}
\abx@aux@segm{0}{0}{jacobs2005correlation}
\citation{burger2016digital}
\abx@aux@segm{0}{0}{burger2016digital}
\citation{sobelimage}
\abx@aux@cite{sobelimage}
\abx@aux@segm{0}{0}{sobelimage}
\citation{sobelimage}
\abx@aux@segm{0}{0}{sobelimage}
\citation{burger2016digital}
\abx@aux@segm{0}{0}{burger2016digital}
\citation{canny1986computational}
\abx@aux@cite{canny1986computational}
\abx@aux@segm{0}{0}{canny1986computational}
\citation{maini2009study}
\abx@aux@cite{maini2009study}
\abx@aux@segm{0}{0}{maini2009study}
\citation{burger2016digital}
\abx@aux@segm{0}{0}{burger2016digital}
\citation{gaussiankernel}
\abx@aux@cite{gaussiankernel}
\abx@aux@segm{0}{0}{gaussiankernel}
\citation{gaussiankernel}
\abx@aux@segm{0}{0}{gaussiankernel}
\citation{gaussiankernel}
\abx@aux@segm{0}{0}{gaussiankernel}
\citation{burger2016digital}
\abx@aux@segm{0}{0}{burger2016digital}
\citation{burger2016digital}
\abx@aux@segm{0}{0}{burger2016digital}
\citation{chen2011robust}
\abx@aux@segm{0}{0}{chen2011robust}
\citation{chen2011robust}
\abx@aux@segm{0}{0}{chen2011robust}
\citation{robusteee}
\abx@aux@cite{robusteee}
\abx@aux@segm{0}{0}{robusteee}
\citation{robusteee}
\abx@aux@segm{0}{0}{robusteee}
\citation{epshtein2010detecting}
\abx@aux@cite{epshtein2010detecting}
\abx@aux@segm{0}{0}{epshtein2010detecting}
\citation{chen2011robust}
\abx@aux@segm{0}{0}{chen2011robust}
\citation{weissteindistance}
\abx@aux@cite{weissteindistance}
\abx@aux@segm{0}{0}{weissteindistance}
\citation{opencvdistance}
\abx@aux@cite{opencvdistance}
\abx@aux@segm{0}{0}{opencvdistance}
\citation{chen2011robust}
\abx@aux@segm{0}{0}{chen2011robust}
\citation{chen2011robust}
\abx@aux@segm{0}{0}{chen2011robust}
\citation{chen2011robust}
\abx@aux@segm{0}{0}{chen2011robust}
\citation{itseez2015opencv}
\abx@aux@cite{itseez2015opencv}
\abx@aux@segm{0}{0}{itseez2015opencv}
\citation{opencvcvtColor}
\abx@aux@cite{opencvcvtColor}
\abx@aux@segm{0}{0}{opencvcvtColor}
\citation{opencvfeature}
\abx@aux@segm{0}{0}{opencvfeature}
\citation{opencvsobel}
\abx@aux@cite{opencvsobel}
\abx@aux@segm{0}{0}{opencvsobel}
\citation{opencvcartpolar}
\abx@aux@cite{opencvcartpolar}
\abx@aux@segm{0}{0}{opencvcartpolar}
\citation{opencvcanny}
\abx@aux@cite{opencvcanny}
\abx@aux@segm{0}{0}{opencvcanny}
\citation{opencvfindCC}
\abx@aux@cite{opencvfindCC}
\abx@aux@segm{0}{0}{opencvfindCC}
\citation{opencvbounding}
\abx@aux@cite{opencvbounding}
\abx@aux@segm{0}{0}{opencvbounding}
\citation{opencvconvex}
\abx@aux@cite{opencvconvex}
\abx@aux@segm{0}{0}{opencvconvex}
\citation{opencvdistance}
\abx@aux@segm{0}{0}{opencvdistance}
\citation{robusteee}
\abx@aux@segm{0}{0}{robusteee}
\citation{chen2011robust}
\abx@aux@segm{0}{0}{chen2011robust}
\@input{chapters/recognition.aux}
\citation{jaderberg2016reading}
\abx@aux@cite{jaderberg2016reading}
\abx@aux@segm{0}{0}{jaderberg2016reading}
\citation{nielsenneuronal}
\abx@aux@cite{nielsenneuronal}
\abx@aux@segm{0}{0}{nielsenneuronal}
\citation{nielsenneuronal}
\abx@aux@segm{0}{0}{nielsenneuronal}
\citation{krizhevsky2012imagenet}
\abx@aux@cite{krizhevsky2012imagenet}
\abx@aux@segm{0}{0}{krizhevsky2012imagenet}
\citation{cs231n}
\abx@aux@cite{cs231n}
\abx@aux@segm{0}{0}{cs231n}
\citation{bengio2012practical}
\abx@aux@cite{bengio2012practical}
\abx@aux@segm{0}{0}{bengio2012practical}
\citation{cs231nPartTwo}
\abx@aux@cite{cs231nPartTwo}
\abx@aux@segm{0}{0}{cs231nPartTwo}
\citation{krizhevsky2012imagenet}
\abx@aux@segm{0}{0}{krizhevsky2012imagenet}
\citation{cs231ncnn}
\abx@aux@cite{cs231ncnn}
\abx@aux@segm{0}{0}{cs231ncnn}
\citation{cnnintro}
\abx@aux@cite{cnnintro}
\abx@aux@segm{0}{0}{cnnintro}
\citation{jaderberg2016reading}
\abx@aux@segm{0}{0}{jaderberg2016reading}
\citation{svt}
\abx@aux@cite{svt}
\abx@aux@segm{0}{0}{svt}
\citation{chollet2015keras}
\abx@aux@cite{chollet2015keras}
\abx@aux@segm{0}{0}{chollet2015keras}
\citation{tensorflow2015-whitepaper}
\abx@aux@cite{tensorflow2015-whitepaper}
\abx@aux@segm{0}{0}{tensorflow2015-whitepaper}
\citation{simonyan2014very}
\abx@aux@cite{simonyan2014very}
\abx@aux@segm{0}{0}{simonyan2014very}
\citation{simonyan2014very}
\abx@aux@segm{0}{0}{simonyan2014very}
\citation{rmsprop}
\abx@aux@cite{rmsprop}
\abx@aux@segm{0}{0}{rmsprop}
\citation{srivastava2014dropout}
\abx@aux@cite{srivastava2014dropout}
\abx@aux@segm{0}{0}{srivastava2014dropout}
\@input{chapters/merge.aux}
\citation{mattext}
\abx@aux@cite{mattext}
\abx@aux@segm{0}{0}{mattext}
\citation{levenshtein1966binary}
\abx@aux@cite{levenshtein1966binary}
\abx@aux@segm{0}{0}{levenshtein1966binary}
\citation{navarro2001guided}
\abx@aux@cite{navarro2001guided}
\abx@aux@segm{0}{0}{navarro2001guided}
\citation{navarro2001guided}
\abx@aux@segm{0}{0}{navarro2001guided}
\@input{chapters/evaluation.aux}
\citation{lucas2005icdar}
\abx@aux@cite{lucas2005icdar}
\abx@aux@segm{0}{0}{lucas2005icdar}
\citation{chen2011robust}
\abx@aux@segm{0}{0}{chen2011robust}
\citation{epshtein2010detecting}
\abx@aux@segm{0}{0}{epshtein2010detecting}
\citation{minetto2010snoopertext}
\abx@aux@cite{minetto2010snoopertext}
\abx@aux@segm{0}{0}{minetto2010snoopertext}
\citation{lucas2005icdar}
\abx@aux@segm{0}{0}{lucas2005icdar}
\citation{lucas2003icdar}
\abx@aux@cite{lucas2003icdar}
\abx@aux@segm{0}{0}{lucas2003icdar}
\@input{chapters/final.aux}
\citation{huang2013text}
\abx@aux@cite{huang2013text}
\abx@aux@segm{0}{0}{huang2013text}
\citation{huang2014robust}
\abx@aux@cite{huang2014robust}
\abx@aux@segm{0}{0}{huang2014robust}
\citation{bissacco2013photoocr}
\abx@aux@cite{bissacco2013photoocr}
\abx@aux@segm{0}{0}{bissacco2013photoocr}
\citation{simonyan2014very}
\abx@aux@segm{0}{0}{simonyan2014very}
\citation{robusteee}
\abx@aux@segm{0}{0}{robusteee}
\citation{chen2011robust}
\abx@aux@segm{0}{0}{chen2011robust}
\@input{chapters/anhang.aux}
\@input{chapters/eid.aux}
\abx@aux@refcontextdefaultsdone
\abx@aux@defaultrefcontext{0}{helinski2012report}{none/global/}
\abx@aux@defaultrefcontext{0}{hauger1995reading}{none/global/}
\abx@aux@defaultrefcontext{0}{ocra}{none/global/}
\abx@aux@defaultrefcontext{0}{icdar}{none/global/}
\abx@aux@defaultrefcontext{0}{burger2016digital}{none/global/}
\abx@aux@defaultrefcontext{0}{ye2015text}{none/global/}
\abx@aux@defaultrefcontext{0}{chen2011robust}{none/global/}
\abx@aux@defaultrefcontext{0}{cc}{none/global/}
\abx@aux@defaultrefcontext{0}{matgeo}{none/global/}
\abx@aux@defaultrefcontext{0}{matas2004robust}{none/global/}
\abx@aux@defaultrefcontext{0}{neumann2010method}{none/global/}
\abx@aux@defaultrefcontext{0}{shi2013scene}{none/global/}
\abx@aux@defaultrefcontext{0}{donoser2006efficient}{none/global/}
\abx@aux@defaultrefcontext{0}{vedaldi08vlfeat}{none/global/}
\abx@aux@defaultrefcontext{0}{opencvfeature}{none/global/}
\abx@aux@defaultrefcontext{0}{opencvGrad}{none/global/}
\abx@aux@defaultrefcontext{0}{jacobs2005correlation}{none/global/}
\abx@aux@defaultrefcontext{0}{jacobsimage}{none/global/}
\abx@aux@defaultrefcontext{0}{opencvconv}{none/global/}
\abx@aux@defaultrefcontext{0}{sobelimage}{none/global/}
\abx@aux@defaultrefcontext{0}{canny1986computational}{none/global/}
\abx@aux@defaultrefcontext{0}{maini2009study}{none/global/}
\abx@aux@defaultrefcontext{0}{gaussiankernel}{none/global/}
\abx@aux@defaultrefcontext{0}{robusteee}{none/global/}
\abx@aux@defaultrefcontext{0}{epshtein2010detecting}{none/global/}
\abx@aux@defaultrefcontext{0}{weissteindistance}{none/global/}
\abx@aux@defaultrefcontext{0}{opencvdistance}{none/global/}
\abx@aux@defaultrefcontext{0}{itseez2015opencv}{none/global/}
\abx@aux@defaultrefcontext{0}{opencvcvtColor}{none/global/}
\abx@aux@defaultrefcontext{0}{opencvsobel}{none/global/}
\abx@aux@defaultrefcontext{0}{opencvcartpolar}{none/global/}
\abx@aux@defaultrefcontext{0}{opencvcanny}{none/global/}
\abx@aux@defaultrefcontext{0}{opencvfindCC}{none/global/}
\abx@aux@defaultrefcontext{0}{opencvbounding}{none/global/}
\abx@aux@defaultrefcontext{0}{opencvconvex}{none/global/}
\abx@aux@defaultrefcontext{0}{jaderberg2016reading}{none/global/}
\abx@aux@defaultrefcontext{0}{nielsenneuronal}{none/global/}
\abx@aux@defaultrefcontext{0}{krizhevsky2012imagenet}{none/global/}
\abx@aux@defaultrefcontext{0}{cs231n}{none/global/}
\abx@aux@defaultrefcontext{0}{bengio2012practical}{none/global/}
\abx@aux@defaultrefcontext{0}{cs231nPartTwo}{none/global/}
\abx@aux@defaultrefcontext{0}{cs231ncnn}{none/global/}
\abx@aux@defaultrefcontext{0}{cnnintro}{none/global/}
\abx@aux@defaultrefcontext{0}{svt}{none/global/}
\abx@aux@defaultrefcontext{0}{chollet2015keras}{none/global/}
\abx@aux@defaultrefcontext{0}{tensorflow2015-whitepaper}{none/global/}
\abx@aux@defaultrefcontext{0}{simonyan2014very}{none/global/}
\abx@aux@defaultrefcontext{0}{rmsprop}{none/global/}
\abx@aux@defaultrefcontext{0}{srivastava2014dropout}{none/global/}
\abx@aux@defaultrefcontext{0}{mattext}{none/global/}
\abx@aux@defaultrefcontext{0}{levenshtein1966binary}{none/global/}
\abx@aux@defaultrefcontext{0}{navarro2001guided}{none/global/}
\abx@aux@defaultrefcontext{0}{lucas2005icdar}{none/global/}
\abx@aux@defaultrefcontext{0}{minetto2010snoopertext}{none/global/}
\abx@aux@defaultrefcontext{0}{lucas2003icdar}{none/global/}
\abx@aux@defaultrefcontext{0}{huang2013text}{none/global/}
\abx@aux@defaultrefcontext{0}{huang2014robust}{none/global/}
\abx@aux@defaultrefcontext{0}{bissacco2013photoocr}{none/global/}
\global\@namedef{scr@dte@chapter@lastmaxnumwidth}{12.14694pt}
\global\@namedef{scr@dte@section@lastmaxnumwidth}{19.70898pt}
\global\@namedef{scr@dte@subsection@lastmaxnumwidth}{28.84563pt}
