\relax 
\providecommand\hyper@newdestlabel[2]{}
\@writefile{toc}{\defcounter {refsection}{0}\relax }\@writefile{toc}{\contentsline {chapter}{\numberline {3}Lokalisierung von Text}{10}{chapter.3}}
\@writefile{lof}{\defcounter {refsection}{0}\relax }\@writefile{lof}{\addvspace {10\p@ }}
\@writefile{lot}{\defcounter {refsection}{0}\relax }\@writefile{lot}{\addvspace {10\p@ }}
\@writefile{loa}{\defcounter {refsection}{0}\relax }\@writefile{loa}{\addvspace {10\p@ }}
\newlabel{chp:textdetection}{{3}{10}{Lokalisierung von Text}{chapter.3}{}}
\@writefile{toc}{\defcounter {refsection}{0}\relax }\@writefile{toc}{\contentsline {section}{\numberline {3.1}Connected Components}{10}{section.3.1}}
\newlabel{sec:cc}{{3.1}{10}{Connected Components}{section.3.1}{}}
\@writefile{lof}{\defcounter {refsection}{0}\relax }\@writefile{lof}{\contentsline {figure}{\numberline {4}{\ignorespaces 4-er Nachbarschaft und 8-er Nachbarschaft eines Pixel mit Position $(x,y)$\relax }}{11}{figure.caption.5}}
\newlabel{fig:neighbours}{{4}{11}{4-er Nachbarschaft und 8-er Nachbarschaft eines Pixel mit Position $(x,y)$\relax }{figure.caption.5}{}}
\@writefile{toc}{\defcounter {refsection}{0}\relax }\@writefile{toc}{\contentsline {subsection}{\numberline {3.1.1}Nachbarschaft von Pixeln (Pixel Connectivity)}{11}{subsection.3.1.1}}
\@writefile{toc}{\defcounter {refsection}{0}\relax }\@writefile{toc}{\contentsline {subsection}{\numberline {3.1.2}Definition einer Connected Component}{11}{subsection.3.1.2}}
\@writefile{lof}{\defcounter {refsection}{0}\relax }\@writefile{lof}{\contentsline {figure}{\numberline {5}{\ignorespaces Connected Components\relax }}{12}{figure.caption.6}}
\newlabel{fig:cc}{{5}{12}{Connected Components\relax }{figure.caption.6}{}}
\@writefile{lof}{\defcounter {refsection}{0}\relax }\@writefile{lof}{\contentsline {subfigure}{\numberline{(a)}{\ignorespaces {Original Bild}}}{12}{subfigure.5.1}}
\@writefile{lof}{\defcounter {refsection}{0}\relax }\@writefile{lof}{\contentsline {subfigure}{\numberline{(b)}{\ignorespaces {Connected Components farblich markiert}}}{12}{subfigure.5.2}}
\@writefile{toc}{\defcounter {refsection}{0}\relax }\@writefile{toc}{\contentsline {subsection}{\numberline {3.1.3}Attribute der Connected Components}{12}{subsection.3.1.3}}
\newlabel{sec:ccatt}{{3.1.3}{12}{Attribute der Connected Components}{subsection.3.1.3}{}}
\@writefile{toc}{\defcounter {refsection}{0}\relax }\@writefile{toc}{\contentsline {subsubsection}{\nonumberline Fl\IeC {\"a}che}{12}{section*.7}}
\@writefile{toc}{\defcounter {refsection}{0}\relax }\@writefile{toc}{\contentsline {subsubsection}{\nonumberline Bounding Box}{12}{section*.8}}
\@writefile{toc}{\defcounter {refsection}{0}\relax }\@writefile{toc}{\contentsline {subsubsection}{\nonumberline Seitenverh\IeC {\"a}ltnis}{13}{section*.9}}
\@writefile{toc}{\defcounter {refsection}{0}\relax }\@writefile{toc}{\contentsline {subsubsection}{\nonumberline Extent}{13}{section*.10}}
\@writefile{toc}{\defcounter {refsection}{0}\relax }\@writefile{toc}{\contentsline {subsubsection}{\nonumberline Solidity}{13}{section*.11}}
\@writefile{lof}{\defcounter {refsection}{0}\relax }\@writefile{lof}{\contentsline {figure}{\numberline {6}{\ignorespaces Textlokalisierung durch MSER\relax }}{14}{figure.caption.12}}
\newlabel{fig:mserDetect}{{6}{14}{Textlokalisierung durch MSER\relax }{figure.caption.12}{}}
\@writefile{lof}{\defcounter {refsection}{0}\relax }\@writefile{lof}{\contentsline {subfigure}{\numberline{(a)}{\ignorespaces {Eingabebild}}}{14}{subfigure.6.1}}
\@writefile{lof}{\defcounter {refsection}{0}\relax }\@writefile{lof}{\contentsline {subfigure}{\numberline{(b)}{\ignorespaces {Erkannte MSER }}}{14}{subfigure.6.2}}
\@writefile{toc}{\defcounter {refsection}{0}\relax }\@writefile{toc}{\contentsline {section}{\numberline {3.2}Maximally Stable Extremal Regions}{14}{section.3.2}}
\newlabel{sec:mser}{{3.2}{14}{Maximally Stable Extremal Regions}{section.3.2}{}}
\@writefile{toc}{\defcounter {refsection}{0}\relax }\@writefile{toc}{\contentsline {subsection}{\numberline {3.2.1}Bin\IeC {\"a}res Thresholding}{14}{subsection.3.2.1}}
\@writefile{lof}{\defcounter {refsection}{0}\relax }\@writefile{lof}{\contentsline {figure}{\numberline {7}{\ignorespaces Bin\IeC {\"a}res Thresholding\relax }}{15}{figure.caption.13}}
\newlabel{fig:thresh}{{7}{15}{Binäres Thresholding\relax }{figure.caption.13}{}}
\@writefile{lof}{\defcounter {refsection}{0}\relax }\@writefile{lof}{\contentsline {subfigure}{\numberline{(a)}{\ignorespaces {Original}}}{15}{subfigure.7.1}}
\@writefile{lof}{\defcounter {refsection}{0}\relax }\@writefile{lof}{\contentsline {subfigure}{\numberline{(b)}{\ignorespaces {$t=32$}}}{15}{subfigure.7.2}}
\@writefile{lof}{\defcounter {refsection}{0}\relax }\@writefile{lof}{\contentsline {subfigure}{\numberline{(c)}{\ignorespaces {$t=70$}}}{15}{subfigure.7.3}}
\@writefile{lof}{\defcounter {refsection}{0}\relax }\@writefile{lof}{\contentsline {subfigure}{\numberline{(d)}{\ignorespaces {$t=111$}}}{15}{subfigure.7.4}}
\@writefile{lof}{\defcounter {refsection}{0}\relax }\@writefile{lof}{\contentsline {subfigure}{\numberline{(e)}{\ignorespaces {$t=255$}}}{15}{subfigure.7.5}}
\@writefile{toc}{\defcounter {refsection}{0}\relax }\@writefile{toc}{\contentsline {subsection}{\numberline {3.2.2}Definitionen}{15}{subsection.3.2.2}}
\@writefile{toc}{\defcounter {refsection}{0}\relax }\@writefile{toc}{\contentsline {subsection}{\numberline {3.2.3}Implementierung}{16}{subsection.3.2.3}}
\@writefile{toc}{\defcounter {refsection}{0}\relax }\@writefile{toc}{\contentsline {subsubsection}{\nonumberline Suche der Extremal Regions}{16}{section*.14}}
\@writefile{toc}{\defcounter {refsection}{0}\relax }\@writefile{toc}{\contentsline {subsubsection}{\nonumberline Auswahl der Maximally Stable Extremal Regions}{16}{section*.16}}
\@writefile{lof}{\defcounter {refsection}{0}\relax }\@writefile{lof}{\contentsline {figure}{\numberline {8}{\ignorespaces Ausschnitt eines Component Tree. Abbildung entstammt \cite {donoser2006efficient} und wurde modifiziert \IeC {\textcopyright } 2006 IEEE\relax }}{17}{figure.caption.15}}
\newlabel{fig:comptree}{{8}{17}{Ausschnitt eines Component Tree. Abbildung entstammt \cite {donoser2006efficient} und wurde modifiziert © 2006 IEEE\relax }{figure.caption.15}{}}
\@writefile{toc}{\defcounter {refsection}{0}\relax }\@writefile{toc}{\contentsline {section}{\numberline {3.3}Gradienten}{18}{section.3.3}}
\newlabel{sec:grads}{{3.3}{18}{Gradienten}{section.3.3}{}}
\@writefile{lof}{\defcounter {refsection}{0}\relax }\@writefile{lof}{\contentsline {figure}{\numberline {9}{\ignorespaces Graustufenbild in 2- und 3-dimensionaler Darstellungen\relax }}{18}{figure.caption.17}}
\newlabel{fig:gradthree}{{9}{18}{Graustufenbild in 2- und 3-dimensionaler Darstellungen\relax }{figure.caption.17}{}}
\@writefile{lof}{\defcounter {refsection}{0}\relax }\@writefile{lof}{\contentsline {subfigure}{\numberline{(a)}{\ignorespaces {2-dimensionale Darstellung mit eingezeichneten Gradienten}}}{18}{subfigure.9.1}}
\@writefile{lof}{\defcounter {refsection}{0}\relax }\@writefile{lof}{\contentsline {subfigure}{\numberline{(b)}{\ignorespaces {3-dimensionale Darstellung}}}{18}{subfigure.9.2}}
\@writefile{toc}{\defcounter {refsection}{0}\relax }\@writefile{toc}{\contentsline {subsection}{\numberline {3.3.1}Intuition}{19}{subsection.3.3.1}}
\@writefile{toc}{\defcounter {refsection}{0}\relax }\@writefile{toc}{\contentsline {subsection}{\numberline {3.3.2}Definition}{19}{subsection.3.3.2}}
\@writefile{toc}{\defcounter {refsection}{0}\relax }\@writefile{toc}{\contentsline {subsection}{\numberline {3.3.3}Berechnung des Gradienten}{19}{subsection.3.3.3}}
\@writefile{lof}{\defcounter {refsection}{0}\relax }\@writefile{lof}{\contentsline {figure}{\numberline {10}{\ignorespaces Beispiel f\IeC {\"u}r einen Kernel\relax }}{20}{figure.caption.19}}
\newlabel{fig:kernel}{{10}{20}{Beispiel für einen Kernel\relax }{figure.caption.19}{}}
\@writefile{toc}{\defcounter {refsection}{0}\relax }\@writefile{toc}{\contentsline {subsubsection}{\nonumberline Kernel}{20}{section*.18}}
\@writefile{toc}{\defcounter {refsection}{0}\relax }\@writefile{toc}{\contentsline {subsubsection}{\nonumberline Faltung und Korrelation}{21}{section*.20}}
\@writefile{toc}{\defcounter {refsection}{0}\relax }\@writefile{toc}{\contentsline {subsubsection}{\nonumberline Sobel}{21}{section*.21}}
\@writefile{lof}{\defcounter {refsection}{0}\relax }\@writefile{lof}{\contentsline {figure}{\numberline {11}{\ignorespaces Canny Edge Detection Resultat\relax }}{23}{figure.caption.22}}
\newlabel{fig:canny}{{11}{23}{Canny Edge Detection Resultat\relax }{figure.caption.22}{}}
\@writefile{lof}{\defcounter {refsection}{0}\relax }\@writefile{lof}{\contentsline {subfigure}{\numberline{(a)}{\ignorespaces {Eingabebild}}}{23}{subfigure.11.1}}
\@writefile{lof}{\defcounter {refsection}{0}\relax }\@writefile{lof}{\contentsline {subfigure}{\numberline{(b)}{\ignorespaces {Erkannte Kanten}}}{23}{subfigure.11.2}}
\@writefile{toc}{\defcounter {refsection}{0}\relax }\@writefile{toc}{\contentsline {section}{\numberline {3.4}Canny Edge Detection}{23}{section.3.4}}
\@writefile{toc}{\defcounter {refsection}{0}\relax }\@writefile{toc}{\contentsline {subsection}{\numberline {3.4.1}Vorbearbeitung}{23}{subsection.3.4.1}}
\@writefile{lof}{\defcounter {refsection}{0}\relax }\@writefile{lof}{\contentsline {figure}{\numberline {12}{\ignorespaces Gau\IeC {\ss } Verteilung mit $\sigma =1$\relax }}{24}{figure.caption.23}}
\newlabel{fig:gaussian}{{12}{24}{Gauß Verteilung mit $\sigma =1$\relax }{figure.caption.23}{}}
\@writefile{lof}{\defcounter {refsection}{0}\relax }\@writefile{lof}{\contentsline {figure}{\numberline {13}{\ignorespaces Auswahl der Nachbarn basierend auf der Orientierung des Gradienten. Abbildung basiert auf \cite [135]{burger2016digital}.\relax }}{25}{figure.caption.24}}
\newlabel{fig:cannyquant}{{13}{25}{Auswahl der Nachbarn basierend auf der Orientierung des Gradienten. Abbildung basiert auf \cite [135]{burger2016digital}.\relax }{figure.caption.24}{}}
\@writefile{toc}{\defcounter {refsection}{0}\relax }\@writefile{toc}{\contentsline {subsection}{\numberline {3.4.2}Lokalisierung der Kanten}{25}{subsection.3.4.2}}
\@writefile{lof}{\defcounter {refsection}{0}\relax }\@writefile{lof}{\contentsline {figure}{\numberline {14}{\ignorespaces Hysteresis Thresholding anhand eines Beispiels\relax }}{26}{figure.caption.25}}
\newlabel{fig:cannyhyst}{{14}{26}{Hysteresis Thresholding anhand eines Beispiels\relax }{figure.caption.25}{}}
\@writefile{toc}{\defcounter {refsection}{0}\relax }\@writefile{toc}{\contentsline {subsection}{\numberline {3.4.3}Hysteresis Thresholding}{26}{subsection.3.4.3}}
\@writefile{lof}{\defcounter {refsection}{0}\relax }\@writefile{lof}{\contentsline {figure}{\numberline {15}{\ignorespaces Edge Enhanced MSER\relax }}{28}{figure.caption.26}}
\newlabel{fig:eee}{{15}{28}{Edge Enhanced MSER\relax }{figure.caption.26}{}}
\@writefile{lof}{\defcounter {refsection}{0}\relax }\@writefile{lof}{\contentsline {subfigure}{\numberline{(a)}{\ignorespaces {Eingabebild}}}{28}{subfigure.15.1}}
\@writefile{lof}{\defcounter {refsection}{0}\relax }\@writefile{lof}{\contentsline {subfigure}{\numberline{(b)}{\ignorespaces {MSER und Canny farblich markiert}}}{28}{subfigure.15.2}}
\@writefile{lof}{\defcounter {refsection}{0}\relax }\@writefile{lof}{\contentsline {subfigure}{\numberline{(c)}{\ignorespaces {Edge Enhanced MSER farblich markiert}}}{28}{subfigure.15.3}}
\@writefile{toc}{\defcounter {refsection}{0}\relax }\@writefile{toc}{\contentsline {section}{\numberline {3.5}Edge Enhanced MSER}{28}{section.3.5}}
\newlabel{sec:eee}{{3.5}{28}{Edge Enhanced MSER}{section.3.5}{}}
\@writefile{toc}{\defcounter {refsection}{0}\relax }\@writefile{toc}{\contentsline {subsection}{\numberline {3.5.1}Durchf\IeC {\"u}hrung des Edge Enhancing}{28}{subsection.3.5.1}}
\@writefile{lof}{\defcounter {refsection}{0}\relax }\@writefile{lof}{\contentsline {figure}{\numberline {16}{\ignorespaces Distance Transform und Stroke Width Transform\relax }}{29}{figure.caption.28}}
\newlabel{fig:swt}{{16}{29}{Distance Transform und Stroke Width Transform\relax }{figure.caption.28}{}}
\@writefile{lof}{\defcounter {refsection}{0}\relax }\@writefile{lof}{\contentsline {subfigure}{\numberline{(a)}{\ignorespaces {Eingabebild (bin\IeC {\"a}r)}}}{29}{subfigure.16.1}}
\@writefile{lof}{\defcounter {refsection}{0}\relax }\@writefile{lof}{\contentsline {subfigure}{\numberline{(b)}{\ignorespaces {Distance Transform}}}{29}{subfigure.16.2}}
\@writefile{lof}{\defcounter {refsection}{0}\relax }\@writefile{lof}{\contentsline {subfigure}{\numberline{(c)}{\ignorespaces {Stroke Width Transform}}}{29}{subfigure.16.3}}
\@writefile{toc}{\defcounter {refsection}{0}\relax }\@writefile{toc}{\contentsline {section}{\numberline {3.6}Stroke Width Transform}{29}{section.3.6}}
\newlabel{sec:swt}{{3.6}{29}{Stroke Width Transform}{section.3.6}{}}
\@writefile{loa}{\defcounter {refsection}{0}\relax }\@writefile{loa}{\contentsline {algocf}{\numberline {1}{\ignorespaces Methode zur Bestimmung der Edge Enhanced MSER. Der Pseudocode basiert auf \cite {robusteee}.\relax }}{30}{algocf.1}}
\newlabel{alg:eee}{{1}{30}{Durchführung des Edge Enhancing}{algocf.1}{}}
\@writefile{toc}{\defcounter {refsection}{0}\relax }\@writefile{toc}{\contentsline {subsection}{\numberline {3.6.1}Distance Transform}{31}{subsection.3.6.1}}
\@writefile{lof}{\defcounter {refsection}{0}\relax }\@writefile{lof}{\contentsline {figure}{\numberline {17}{\ignorespaces Dreidimensionale Darstellung der Distance Transform und Stroke Width Transform\relax }}{31}{figure.caption.29}}
\newlabel{fig:swtthree}{{17}{31}{Dreidimensionale Darstellung der Distance Transform und Stroke Width Transform\relax }{figure.caption.29}{}}
\@writefile{lof}{\defcounter {refsection}{0}\relax }\@writefile{lof}{\contentsline {subfigure}{\numberline{(a)}{\ignorespaces {Distance Transform}}}{31}{subfigure.17.1}}
\@writefile{lof}{\defcounter {refsection}{0}\relax }\@writefile{lof}{\contentsline {subfigure}{\numberline{(b)}{\ignorespaces {Stroke Width Transform}}}{31}{subfigure.17.2}}
\@writefile{toc}{\defcounter {refsection}{0}\relax }\@writefile{toc}{\contentsline {subsection}{\numberline {3.6.2}Anwendung der Stroke Width Transform}{32}{subsection.3.6.2}}
\@writefile{loa}{\defcounter {refsection}{0}\relax }\@writefile{loa}{\contentsline {algocf}{\numberline {2}{\ignorespaces Methode zur Anwendung der Stroke Width Transform auf ein bin\IeC {\"a}res Bild. Der Pseudocode basiert auf \cite {chen2011robust}.\relax }}{33}{algocf.2}}
\newlabel{alg:swt}{{2}{33}{Anwendung der Stroke Width Transform}{algocf.2}{}}
\@writefile{lof}{\defcounter {refsection}{0}\relax }\@writefile{lof}{\contentsline {figure}{\numberline {18}{\ignorespaces \IeC {\"U}bersicht \IeC {\"u}ber die Funktionsweise der Textlokalisierung\relax }}{34}{figure.caption.31}}
\newlabel{fig:detectoverview}{{18}{34}{Übersicht über die Funktionsweise der Textlokalisierung\relax }{figure.caption.31}{}}
\@writefile{toc}{\defcounter {refsection}{0}\relax }\@writefile{toc}{\contentsline {section}{\numberline {3.7}Robuste Textlokalisierung}{34}{section.3.7}}
\newlabel{sec:rtd}{{3.7}{34}{Robuste Textlokalisierung}{section.3.7}{}}
\@writefile{lot}{\defcounter {refsection}{0}\relax }\@writefile{lot}{\contentsline {table}{\numberline {1}{\ignorespaces Parameter der Textlokalisierung\relax }}{35}{table.caption.32}}
\newlabel{tbl:params}{{1}{35}{Parameter der Textlokalisierung\relax }{table.caption.32}{}}
\@writefile{toc}{\defcounter {refsection}{0}\relax }\@writefile{toc}{\contentsline {subsubsection}{\nonumberline Parameter}{35}{section*.33}}
\@writefile{toc}{\defcounter {refsection}{0}\relax }\@writefile{toc}{\contentsline {subsubsection}{\nonumberline Praktische Umsetzung}{36}{section*.34}}
\@setckpt{chapters/detect}{
\setcounter{page}{37}
\setcounter{equation}{25}
\setcounter{enumi}{7}
\setcounter{enumii}{0}
\setcounter{enumiii}{0}
\setcounter{enumiv}{0}
\setcounter{footnote}{7}
\setcounter{mpfootnote}{0}
\setcounter{part}{0}
\setcounter{chapter}{3}
\setcounter{section}{7}
\setcounter{subsection}{0}
\setcounter{subsubsection}{0}
\setcounter{paragraph}{0}
\setcounter{subparagraph}{0}
\setcounter{figure}{18}
\setcounter{table}{1}
\setcounter{tabx@nest}{0}
\setcounter{listtotal}{0}
\setcounter{listcount}{0}
\setcounter{liststart}{0}
\setcounter{liststop}{0}
\setcounter{citecount}{0}
\setcounter{citetotal}{0}
\setcounter{multicitecount}{0}
\setcounter{multicitetotal}{0}
\setcounter{instcount}{74}
\setcounter{maxnames}{3}
\setcounter{minnames}{3}
\setcounter{maxitems}{3}
\setcounter{minitems}{1}
\setcounter{citecounter}{0}
\setcounter{savedcitecounter}{0}
\setcounter{uniquelist}{0}
\setcounter{uniquename}{0}
\setcounter{refsection}{0}
\setcounter{refsegment}{0}
\setcounter{maxextratitle}{0}
\setcounter{maxextratitleyear}{0}
\setcounter{maxextrayear}{0}
\setcounter{maxextraalpha}{0}
\setcounter{abbrvpenalty}{50}
\setcounter{highnamepenalty}{50}
\setcounter{lownamepenalty}{25}
\setcounter{maxparens}{3}
\setcounter{parenlevel}{0}
\setcounter{mincomprange}{10}
\setcounter{maxcomprange}{100000}
\setcounter{mincompwidth}{1}
\setcounter{afterword}{0}
\setcounter{savedafterword}{0}
\setcounter{annotator}{0}
\setcounter{savedannotator}{0}
\setcounter{author}{0}
\setcounter{savedauthor}{0}
\setcounter{bookauthor}{0}
\setcounter{savedbookauthor}{0}
\setcounter{commentator}{0}
\setcounter{savedcommentator}{0}
\setcounter{editor}{0}
\setcounter{savededitor}{0}
\setcounter{editora}{0}
\setcounter{savededitora}{0}
\setcounter{editorb}{0}
\setcounter{savededitorb}{0}
\setcounter{editorc}{0}
\setcounter{savededitorc}{0}
\setcounter{foreword}{0}
\setcounter{savedforeword}{0}
\setcounter{holder}{0}
\setcounter{savedholder}{0}
\setcounter{introduction}{0}
\setcounter{savedintroduction}{0}
\setcounter{namea}{0}
\setcounter{savednamea}{0}
\setcounter{nameb}{0}
\setcounter{savednameb}{0}
\setcounter{namec}{0}
\setcounter{savednamec}{0}
\setcounter{translator}{0}
\setcounter{savedtranslator}{0}
\setcounter{shortauthor}{0}
\setcounter{savedshortauthor}{0}
\setcounter{shorteditor}{0}
\setcounter{savedshorteditor}{0}
\setcounter{labelname}{0}
\setcounter{savedlabelname}{0}
\setcounter{institution}{0}
\setcounter{savedinstitution}{0}
\setcounter{lista}{0}
\setcounter{savedlista}{0}
\setcounter{listb}{0}
\setcounter{savedlistb}{0}
\setcounter{listc}{0}
\setcounter{savedlistc}{0}
\setcounter{listd}{0}
\setcounter{savedlistd}{0}
\setcounter{liste}{0}
\setcounter{savedliste}{0}
\setcounter{listf}{0}
\setcounter{savedlistf}{0}
\setcounter{location}{0}
\setcounter{savedlocation}{0}
\setcounter{organization}{0}
\setcounter{savedorganization}{0}
\setcounter{origlocation}{0}
\setcounter{savedoriglocation}{0}
\setcounter{origpublisher}{0}
\setcounter{savedorigpublisher}{0}
\setcounter{publisher}{0}
\setcounter{savedpublisher}{0}
\setcounter{language}{0}
\setcounter{savedlanguage}{0}
\setcounter{pageref}{0}
\setcounter{savedpageref}{0}
\setcounter{textcitecount}{0}
\setcounter{textcitetotal}{0}
\setcounter{textcitemaxnames}{0}
\setcounter{biburlnumpenalty}{0}
\setcounter{biburlucpenalty}{0}
\setcounter{biburllcpenalty}{0}
\setcounter{smartand}{1}
\setcounter{bbx:relatedcount}{0}
\setcounter{bbx:relatedtotal}{0}
\setcounter{cbx@tempcnta}{0}
\setcounter{cbx@tempcntb}{7}
\setcounter{Item}{11}
\setcounter{Hfootnote}{7}
\setcounter{bookmark@seq@number}{29}
\setcounter{parentequation}{0}
\setcounter{ContinuedFloat}{0}
\setcounter{KVtest}{0}
\setcounter{subfigure}{0}
\setcounter{subfigure@save}{2}
\setcounter{lofdepth}{1}
\setcounter{subtable}{0}
\setcounter{subtable@save}{0}
\setcounter{lotdepth}{1}
\setcounter{AlgoLine}{24}
\setcounter{algocfline}{2}
\setcounter{algocfproc}{2}
\setcounter{algocf}{2}
\setcounter{thm}{0}
\setcounter{section@level}{3}
}
