%!PS-Adobe-3.0 EPSF-3.0
%%Title: gl2ps_renderer figure
%%Creator: GL2PS 1.3.9, (C) 1999-2015 C. Geuzaine
%%For: Octave
%%CreationDate: Sat Sep  9 19:31:40 2017
%%LanguageLevel: 3
%%DocumentData: Clean7Bit
%%Pages: 1
%%BoundingBox: 0 0 576 432
%%EndComments
%%BeginProlog
/gl2psdict 64 dict def gl2psdict begin
0 setlinecap 0 setlinejoin
/tryPS3shading false def % set to false to force subdivision
/rThreshold 0.064 def % red component subdivision threshold
/gThreshold 0.034 def % green component subdivision threshold
/bThreshold 0.1 def % blue component subdivision threshold
/BD { bind def } bind def
/C  { setrgbcolor } BD
/G  { 0.082 mul exch 0.6094 mul add exch 0.3086 mul add neg 1.0 add setgray } BD
/W  { setlinewidth } BD
/FC { findfont exch /SH exch def SH scalefont setfont } BD
/SW { dup stringwidth pop } BD
/S  { FC moveto show } BD
/SBC{ FC moveto SW -2 div 0 rmoveto show } BD
/SBR{ FC moveto SW neg 0 rmoveto show } BD
/SCL{ FC moveto 0 SH -2 div rmoveto show } BD
/SCC{ FC moveto SW -2 div SH -2 div rmoveto show } BD
/SCR{ FC moveto SW neg SH -2 div rmoveto show } BD
/STL{ FC moveto 0 SH neg rmoveto show } BD
/STC{ FC moveto SW -2 div SH neg rmoveto show } BD
/STR{ FC moveto SW neg SH neg rmoveto show } BD
/FCT { FC translate 0 0 } BD
/SR  { gsave FCT moveto rotate show grestore } BD
/SBCR{ gsave FCT moveto rotate SW -2 div 0 rmoveto show grestore } BD
/SBRR{ gsave FCT moveto rotate SW neg 0 rmoveto show grestore } BD
/SCLR{ gsave FCT moveto rotate 0 SH -2 div rmoveto show grestore} BD
/SCCR{ gsave FCT moveto rotate SW -2 div SH -2 div rmoveto show grestore} BD
/SCRR{ gsave FCT moveto rotate SW neg SH -2 div rmoveto show grestore} BD
/STLR{ gsave FCT moveto rotate 0 SH neg rmoveto show grestore } BD
/STCR{ gsave FCT moveto rotate SW -2 div SH neg rmoveto show grestore } BD
/STRR{ gsave FCT moveto rotate SW neg SH neg rmoveto show grestore } BD
/P  { newpath 0.0 360.0 arc closepath fill } BD
/LS { newpath moveto } BD
/L  { lineto } BD
/LE { lineto stroke } BD
/T  { newpath moveto lineto lineto closepath fill } BD
/STshfill {
      /b1 exch def /g1 exch def /r1 exch def /y1 exch def /x1 exch def
      /b2 exch def /g2 exch def /r2 exch def /y2 exch def /x2 exch def
      /b3 exch def /g3 exch def /r3 exch def /y3 exch def /x3 exch def
      gsave << /ShadingType 4 /ColorSpace [/DeviceRGB]
      /DataSource [ 0 x1 y1 r1 g1 b1 0 x2 y2 r2 g2 b2 0 x3 y3 r3 g3 b3 ] >>
      shfill grestore } BD
/Tm { 3 -1 roll 8 -1 roll 13 -1 roll add add 3 div
      3 -1 roll 7 -1 roll 11 -1 roll add add 3 div
      3 -1 roll 6 -1 roll 9 -1 roll add add 3 div C T } BD
/STsplit {
      4 index 15 index add 0.5 mul
      4 index 15 index add 0.5 mul
      4 index 15 index add 0.5 mul
      4 index 15 index add 0.5 mul
      4 index 15 index add 0.5 mul
      5 copy 5 copy 25 15 roll
      9 index 30 index add 0.5 mul
      9 index 30 index add 0.5 mul
      9 index 30 index add 0.5 mul
      9 index 30 index add 0.5 mul
      9 index 30 index add 0.5 mul
      5 copy 5 copy 35 5 roll 25 5 roll 15 5 roll
      4 index 10 index add 0.5 mul
      4 index 10 index add 0.5 mul
      4 index 10 index add 0.5 mul
      4 index 10 index add 0.5 mul
      4 index 10 index add 0.5 mul
      5 copy 5 copy 40 5 roll 25 5 roll 15 5 roll 25 5 roll
      STnoshfill STnoshfill STnoshfill STnoshfill } BD
/STnoshfill {
      2 index 8 index sub abs rThreshold gt
      { STsplit }
      { 1 index 7 index sub abs gThreshold gt
        { STsplit }
        { dup 6 index sub abs bThreshold gt
          { STsplit }
          { 2 index 13 index sub abs rThreshold gt
            { STsplit }
            { 1 index 12 index sub abs gThreshold gt
              { STsplit }
              { dup 11 index sub abs bThreshold gt
                { STsplit }
                { 7 index 13 index sub abs rThreshold gt
                  { STsplit }
                  { 6 index 12 index sub abs gThreshold gt
                    { STsplit }
                    { 5 index 11 index sub abs bThreshold gt
                      { STsplit }
                      { Tm }
                      ifelse }
                    ifelse }
                  ifelse }
                ifelse }
              ifelse }
            ifelse }
          ifelse }
        ifelse }
      ifelse } BD
tryPS3shading
{ /shfill where
  { /ST { STshfill } BD }
  { /ST { STnoshfill } BD }
  ifelse }
{ /ST { STnoshfill } BD }
ifelse
end
%%EndProlog
%%BeginSetup
/DeviceRGB setcolorspace
gl2psdict begin
%%EndSetup
%%Page: 1 1
%%BeginPageSetup
%%EndPageSetup
mark
gsave
1.0 1.0 scale
1 1 1 C
newpath 0 0 moveto 576 0 lineto 576 432 lineto 0 432 lineto
closepath fill
gsave
1.0 1.0 scale
1 1 1 C
newpath 0 0 moveto 576 0 lineto 576 432 lineto 0 432 lineto
closepath fill
newpath 0 0 moveto 576 0 lineto 576 432 lineto 0 432 lineto
closepath clip
1 1 1 C
521.28 399.6 521.28 47.52 74.8799 47.52 T
74.8799 399.6 521.28 399.6 74.8799 47.52 T
0.5 W
0.15 0.15 0.15 C
74.8799 47.52 LS
74.8799 51.9849 LE
138.651 47.52 LS
138.651 51.9849 LE
202.423 47.52 LS
202.423 51.9849 LE
266.194 47.52 LS
266.194 51.9849 LE
329.966 47.52 LS
329.966 51.9849 LE
393.737 47.52 LS
393.737 51.9849 LE
457.509 47.52 LS
457.509 51.9849 LE
521.28 47.52 LS
521.28 51.9849 LE
0.14902 0.14902 0.14902 C
(1) 74.8799 42.519 10 /Helvetica STC
(2) 138.651 42.519 10 /Helvetica STC
(3) 202.423 42.519 10 /Helvetica STC
(4) 266.194 42.519 10 /Helvetica STC
(5) 329.966 42.519 10 /Helvetica STC
(6) 393.737 42.519 10 /Helvetica STC
(7) 457.509 42.519 10 /Helvetica STC
(8) 521.28 42.519 10 /Helvetica STC
[16 0] 0 setdash
0.15 0.15 0.15 C
74.8799 47.52 LS
521.28 47.52 LE
74.8799 117.936 LS
521.28 117.936 LE
74.8799 188.352 LS
521.28 188.352 LE
74.8799 258.768 LS
521.28 258.768 LE
74.8799 329.184 LS
521.28 329.184 LE
74.8799 399.6 LS
521.28 399.6 LE
[] 0 setdash
74.8799 47.52 LS
79.3481 47.52 LE
74.8799 117.936 LS
79.3481 117.936 LE
74.8799 188.352 LS
79.3481 188.352 LE
74.8799 258.768 LS
79.3481 258.768 LE
74.8799 329.184 LS
79.3481 329.184 LE
74.8799 399.6 LS
79.3481 399.6 LE
0.14902 0.14902 0.14902 C
(0) 69.8755 47.52 10 /Helvetica SCR
(0.5) 69.8755 117.936 10 /Helvetica SCR
(1) 69.8755 188.352 10 /Helvetica SCR
(1.5) 69.8755 258.768 10 /Helvetica SCR
(2) 69.8755 329.184 10 /Helvetica SCR
(2.5) 69.8755 399.6 10 /Helvetica SCR
[16 0] 0 setdash
0.15 0.15 0.15 C
74.8799 47.52 LS
521.28 47.52 LE
74.8799 47.52 LS
74.8799 399.6 LE
0.14902 0.14902 0.14902 C
(Bild Nummer) 298.08 29.519 11 /Helvetica STC
(Laufzeit \(Sekunden\)) 90 50.8755 223.56 11 /Helvetica SBCR
[] 0 setdash
0 0.447 0.741 C
74.8799 47.52 LS
74.8799 365.123 LE
138.651 47.52 LS
138.651 289.982 LE
202.423 47.52 LS
202.423 281.593 LE
266.194 47.52 LS
266.194 286.933 LE
329.966 47.52 LS
329.966 283.14 LE
393.737 47.52 LS
393.737 252.342 LE
457.509 47.52 LS
457.509 255.047 LE
521.28 47.52 LS
521.28 273.542 LE
77.8799 365.123 LS
77.3071 363.359 L
75.8071 362.27 L
73.9531 362.27 L
72.4531 363.359 L
71.8799 365.123 L
72.4531 366.886 L
73.9531 367.976 L
75.8071 367.976 L
77.3071 366.886 L
77.8799 365.123 LE
141.651 289.982 LS
141.079 288.219 L
139.579 287.129 L
137.725 287.129 L
136.225 288.219 L
135.651 289.982 L
136.225 291.746 L
137.725 292.836 L
139.579 292.836 L
141.079 291.746 L
141.651 289.982 LE
205.423 281.593 LS
204.85 279.83 L
203.35 278.74 L
201.496 278.74 L
199.996 279.83 L
199.423 281.593 L
199.996 283.356 L
201.496 284.446 L
203.35 284.446 L
204.85 283.356 L
205.423 281.593 LE
269.194 286.933 LS
268.621 285.17 L
267.121 284.08 L
265.267 284.08 L
263.767 285.17 L
263.194 286.933 L
263.767 288.697 L
265.267 289.787 L
267.121 289.787 L
268.621 288.697 L
269.194 286.933 LE
332.966 283.14 LS
332.393 281.376 L
330.893 280.286 L
329.039 280.286 L
327.539 281.376 L
326.966 283.14 L
327.539 284.903 L
329.039 285.993 L
330.893 285.993 L
332.393 284.903 L
332.966 283.14 LE
396.737 252.342 LS
396.164 250.579 L
394.664 249.489 L
392.81 249.489 L
391.31 250.579 L
390.737 252.342 L
391.31 254.105 L
392.81 255.195 L
394.664 255.195 L
396.164 254.105 L
396.737 252.342 LE
460.509 255.047 LS
459.936 253.283 L
458.436 252.193 L
456.582 252.193 L
455.082 253.283 L
454.509 255.047 L
455.082 256.81 L
456.582 257.9 L
458.436 257.9 L
459.936 256.81 L
460.509 255.047 LE
524.28 273.542 LS
523.707 271.778 L
522.207 270.688 L
520.353 270.688 L
518.853 271.778 L
518.28 273.542 L
518.853 275.305 L
520.353 276.395 L
522.207 276.395 L
523.707 275.305 L
524.28 273.542 LE
0 0 0 C
74.8799 47.52 LS
521.28 47.52 LE
grestore
grestore
showpage
cleartomark
%%PageTrailer
%%Trailer
end
%%EOF
